<svg width="10" height="16" viewBox="0 0 10 16" fill="none" xmlns="http://www.w3.org/2000/svg">
<path d="M7.35925 7.99994L1.082 1.72269C0.916407 1.55709 0.83574 1.35998 0.840004 1.13136C0.844282 0.902716 0.929219 0.705606 1.09482 0.540023C1.26041 0.374425 1.45752 0.291626 1.68615 0.291626C1.91478 0.291626 2.11189 0.374425 2.27748 0.540023L8.6573 6.93265C8.80794 7.08329 8.91958 7.25209 8.99223 7.43904C9.06487 7.62602 9.10119 7.81298 9.10119 7.99994C9.10119 8.1869 9.06487 8.37386 8.99223 8.56084C8.91958 8.74779 8.80794 8.91659 8.6573 9.06723L2.26467 15.4599C2.09907 15.6255 1.90409 15.7061 1.67973 15.7019C1.45539 15.6976 1.26041 15.6126 1.09482 15.447C0.929219 15.2814 0.846421 15.0843 0.846421 14.8557C0.846421 14.6271 0.929219 14.43 1.09482 14.2644L7.35925 7.99994Z" fill="#1C1B1F"/>
</svg>
