<svg width="12" height="10" viewBox="0 0 12 10" fill="none" xmlns="http://www.w3.org/2000/svg">
<path d="M2.95047 8.40376L1.7815 9.57273C1.62056 9.73368 1.43632 9.76968 1.22878 9.68073C1.02125 9.59179 0.91748 9.43296 0.91748 9.20425V1.28829C0.91748 1.00875 1.01701 0.769449 1.21608 0.570385C1.41514 0.371321 1.65444 0.27179 1.93398 0.27179H10.0659C10.3455 0.27179 10.5848 0.371321 10.7838 0.570385C10.9829 0.769449 11.0824 1.00875 11.0824 1.28829V7.38726C11.0824 7.6668 10.9829 7.9061 10.7838 8.10516C10.5848 8.30423 10.3455 8.40376 10.0659 8.40376H2.95047Z" fill="#20409B"/>
<path d="M2.95047 8.39126V8.38608L2.94163 8.39492L1.77266 9.56389C1.69357 9.64298 1.60942 9.69074 1.52022 9.70817C1.43102 9.7256 1.33564 9.71293 1.23371 9.66924C1.13177 9.62555 1.05607 9.56505 1.00577 9.48807C0.955466 9.41107 0.92998 9.31668 0.92998 9.20425V1.28829C0.92998 1.01209 1.02818 0.775963 1.22492 0.579224C1.42165 0.382486 1.65778 0.28429 1.93398 0.28429H10.0659C10.3421 0.28429 10.5783 0.382486 10.775 0.579224C10.9717 0.775962 11.0699 1.01209 11.0699 1.28829V7.38726C11.0699 7.66346 10.9717 7.89959 10.775 8.09632C10.5783 8.29306 10.3421 8.39126 10.0659 8.39126H2.95047Z" stroke="url(#paint0_linear_19176_844)" stroke-opacity="0.4" stroke-width="0.025"/>
<defs>
<linearGradient id="paint0_linear_19176_844" x1="1.02288" y1="9.81693" x2="10.3628" y2="9.67698" gradientUnits="userSpaceOnUse">
<stop stop-color="#3A56D3"/>
<stop offset="0.796957" stop-color="#4878FB"/>
<stop offset="1" stop-color="#5582FE"/>
</linearGradient>
</defs>
</svg>
