<svg width="25" height="24" viewBox="0 0 25 24" fill="none" xmlns="http://www.w3.org/2000/svg">
<path d="M15.4319 8.79L11.1419 13.09L9.49189 11.44C9.40224 11.3353 9.29192 11.2503 9.16786 11.1903C9.04379 11.1303 8.90866 11.0965 8.77094 11.0912C8.63322 11.0859 8.49589 11.1091 8.36756 11.1594C8.23924 11.2096 8.12269 11.2859 8.02524 11.3833C7.92778 11.4808 7.85152 11.5974 7.80125 11.7257C7.75098 11.854 7.72777 11.9913 7.73309 12.1291C7.73841 12.2668 7.77214 12.4019 7.83216 12.526C7.89219 12.65 7.97721 12.7604 8.08189 12.85L10.4319 15.21C10.5253 15.3027 10.6361 15.376 10.758 15.4258C10.8798 15.4755 11.0103 15.5008 11.1419 15.5C11.4042 15.4989 11.6556 15.3947 11.8419 15.21L16.8419 10.21C16.9356 10.117 17.01 10.0064 17.0608 9.88458C17.1115 9.76272 17.1377 9.63201 17.1377 9.5C17.1377 9.36799 17.1115 9.23728 17.0608 9.11542C17.01 8.99356 16.9356 8.88296 16.8419 8.79C16.6545 8.60375 16.4011 8.49921 16.1369 8.49921C15.8727 8.49921 15.6193 8.60375 15.4319 8.79ZM12.7119 2C10.7341 2 8.80068 2.58649 7.15619 3.6853C5.51169 4.78412 4.22997 6.3459 3.47309 8.17317C2.71622 10.0004 2.51818 12.0111 2.90404 13.9509C3.28989 15.8907 4.2423 17.6725 5.64082 19.0711C7.03935 20.4696 8.82118 21.422 10.761 21.8079C12.7008 22.1937 14.7115 21.9957 16.5387 21.2388C18.366 20.4819 19.9278 19.2002 21.0266 17.5557C22.1254 15.9112 22.7119 13.9778 22.7119 12C22.7119 10.6868 22.4532 9.38642 21.9507 8.17317C21.4481 6.95991 20.7115 5.85752 19.783 4.92893C18.8544 4.00035 17.752 3.26375 16.5387 2.7612C15.3255 2.25866 14.0251 2 12.7119 2ZM12.7119 20C11.1296 20 9.58292 19.5308 8.26733 18.6518C6.95173 17.7727 5.92635 16.5233 5.32085 15.0615C4.71535 13.5997 4.55692 11.9911 4.86561 10.4393C5.17429 8.88743 5.93621 7.46197 7.05503 6.34315C8.17385 5.22433 9.59932 4.4624 11.1512 4.15372C12.703 3.84504 14.3115 4.00346 15.7734 4.60896C17.2352 5.21447 18.4846 6.23984 19.3636 7.55544C20.2427 8.87103 20.7119 10.4177 20.7119 12C20.7119 14.1217 19.869 16.1566 18.3687 17.6569C16.8685 19.1571 14.8336 20 12.7119 20Z" fill="#2A4BA7"/>
</svg>
