<svg width="19" height="19" viewBox="0 0 19 19" fill="none" xmlns="http://www.w3.org/2000/svg">
<mask id="mask0_19176_929" style="mask-type:alpha" maskUnits="userSpaceOnUse" x="0" y="0" width="19" height="19">
<rect width="19" height="19" fill="#D9D9D9"/>
</mask>
<g mask="url(#mask0_19176_929)">
<path d="M4.74984 17.4166C4.31442 17.4166 3.94168 17.2616 3.63161 16.9515C3.32154 16.6415 3.1665 16.2687 3.1665 15.8333V3.16665C3.1665 2.73123 3.32154 2.35849 3.63161 2.04842C3.94168 1.73835 4.31442 1.58331 4.74984 1.58331H10.43C10.6412 1.58331 10.8424 1.6229 11.0337 1.70206C11.225 1.78123 11.3932 1.89338 11.5384 2.03852L15.378 5.8781C15.5231 6.02324 15.6353 6.19147 15.7144 6.38279C15.7936 6.57411 15.8332 6.77533 15.8332 6.98644V15.8333C15.8332 16.2687 15.6781 16.6415 15.3681 16.9515C15.058 17.2616 14.6853 17.4166 14.2498 17.4166H4.74984ZM10.2915 6.33331C10.2915 6.55762 10.3674 6.74564 10.5191 6.89738C10.6708 7.04911 10.8589 7.12498 11.0832 7.12498H14.2498L10.2915 3.16665V6.33331Z" fill="#20409B"/>
</g>
</svg>
