<svg width="26" height="28" viewBox="0 0 26 28" fill="none" xmlns="http://www.w3.org/2000/svg">
<path fill-rule="evenodd" clip-rule="evenodd" d="M18.25 9.625H22.875C23.7034 9.625 24.375 10.2966 24.375 11.125V26.25H18.25V9.625ZM21.3125 12.6875C21.0804 12.6875 20.8579 12.7797 20.6938 12.9438C20.5297 13.1079 20.4375 13.3304 20.4375 13.5625V15.75C20.4375 15.9821 20.5297 16.2046 20.6938 16.3687C20.8579 16.5328 21.0804 16.625 21.3125 16.625C21.5446 16.625 21.7671 16.5328 21.9312 16.3687C22.0953 16.2046 22.1875 15.9821 22.1875 15.75V13.5625C22.1875 13.3304 22.0953 13.1079 21.9312 12.9438C21.7671 12.7797 21.5446 12.6875 21.3125 12.6875ZM20.6938 18.6313C20.8579 18.4672 21.0804 18.375 21.3125 18.375C21.5446 18.375 21.7671 18.4672 21.9312 18.6313C22.0953 18.7954 22.1875 19.0179 22.1875 19.25V21.4375C22.1875 21.6696 22.0953 21.8921 21.9312 22.0562C21.7671 22.2203 21.5446 22.3125 21.3125 22.3125C21.0804 22.3125 20.8579 22.2203 20.6938 22.0562C20.5297 21.8921 20.4375 21.6696 20.4375 21.4375V19.25C20.4375 19.0179 20.5297 18.7954 20.6938 18.6313Z" fill="white"/>
<path fill-rule="evenodd" clip-rule="evenodd" d="M2.5 2.375C2.5 1.54657 3.17157 0.875 4 0.875H15.875C16.7034 0.875 17.375 1.54657 17.375 2.375V26.25H14.3125V17.9375C14.3125 17.7054 14.2203 17.4829 14.0562 17.3188C13.8921 17.1547 13.6696 17.0625 13.4375 17.0625H6.4375C6.20544 17.0625 5.98288 17.1547 5.81878 17.3188C5.65469 17.4829 5.5625 17.7054 5.5625 17.9375V26.25H2.5V2.375ZM12.5625 18.8125V26.25H7.3125V18.8125H12.5625ZM9.31878 2.88128C9.48288 2.71719 9.70544 2.625 9.9375 2.625C10.1696 2.625 10.3921 2.71719 10.5562 2.88128C10.7203 3.04538 10.8125 3.26794 10.8125 3.5V4.8125H12.125C12.3571 4.8125 12.5796 4.90469 12.7437 5.06878C12.9078 5.23288 13 5.45544 13 5.6875C13 5.91957 12.9078 6.14212 12.7437 6.30622C12.5796 6.47031 12.3571 6.5625 12.125 6.5625H10.8125V7.875C10.8125 8.10707 10.7203 8.32962 10.5562 8.49372C10.3921 8.65781 10.1696 8.75 9.9375 8.75C9.70544 8.75 9.48288 8.65781 9.31878 8.49372C9.15469 8.32962 9.0625 8.10707 9.0625 7.875V6.5625H7.75C7.51794 6.5625 7.29538 6.47031 7.13128 6.30622C6.96719 6.14212 6.875 5.91957 6.875 5.6875C6.875 5.45544 6.96719 5.23288 7.13128 5.06878C7.29538 4.90469 7.51794 4.8125 7.75 4.8125H9.0625V3.5C9.0625 3.26794 9.15469 3.04538 9.31878 2.88128ZM5.125 13.125C5.125 13.3571 5.21719 13.5796 5.38128 13.7437C5.54538 13.9078 5.76794 14 6 14H8.1875C8.41956 14 8.64212 13.9078 8.80622 13.7437C8.97031 13.5796 9.0625 13.3571 9.0625 13.125C9.0625 12.8929 8.97031 12.6704 8.80622 12.5063C8.64212 12.3422 8.41956 12.25 8.1875 12.25H6C5.76794 12.25 5.54538 12.3422 5.38128 12.5063C5.21719 12.6704 5.125 12.8929 5.125 13.125ZM11.0688 13.7437C10.9047 13.5796 10.8125 13.3571 10.8125 13.125C10.8125 12.8929 10.9047 12.6704 11.0688 12.5063C11.2329 12.3422 11.4554 12.25 11.6875 12.25H13.875C14.1071 12.25 14.3296 12.3422 14.4937 12.5063C14.6578 12.6704 14.75 12.8929 14.75 13.125C14.75 13.3571 14.6578 13.5796 14.4937 13.7437C14.3296 13.9078 14.1071 14 13.875 14H11.6875C11.4554 14 11.2329 13.9078 11.0688 13.7437Z" fill="white"/>
<rect x="0.75" y="25.375" width="24.5" height="1.75" rx="0.875" fill="white"/>
</svg>
