<svg width="21" height="20" viewBox="0 0 21 20" fill="none" xmlns="http://www.w3.org/2000/svg">
<path opacity="0.4" d="M5 0L15 0C18 0 20 1.5 20 5V8.14001C20 8.87001 19.25 9.33001 18.58 9.04001C17.48 8.56001 16.23 8.38 14.92 8.59C12.3 9.02 10.16 11.09 9.63 13.69C9.48001 14.45 9.46 15.19 9.56 15.9C9.64 16.49 9.16001 17.01 8.57001 17.01H5C2 17.01 0 15.51 0 12.01L0 5.01001C0 1.50001 2 0 5 0Z" fill="#476DD6"/>
<path d="M10 8.86997C9.16002 8.86997 8.31003 8.60996 7.66003 8.07996L4.53002 5.57996C4.21002 5.31996 4.15003 4.84997 4.41003 4.52997C4.67003 4.20997 5.14001 4.14997 5.46001 4.40997L8.59002 6.90997C9.35002 7.51997 10.64 7.51997 11.4 6.90997L14.53 4.40997C14.85 4.14997 15.33 4.19997 15.58 4.52997C15.84 4.84997 15.79 5.32996 15.46 5.57996L12.33 8.07996C11.69 8.60996 10.84 8.86997 10 8.86997Z" fill="#476DD6"/>
<path d="M16 10C13.24 10 11 12.23 11 15C11 17.76 13.24 20 16 20C18.77 20 21 17.76 21 15C21 12.23 18.77 10 16 10ZM18.05 14.55L17.68 14.91L15.51 17.09C15.41 17.18 15.22 17.28 15.08 17.3L14.1 17.44C13.75 17.49 13.5 17.24 13.55 16.89L13.69 15.91C13.71 15.77 13.8 15.58 13.9 15.48L16.08 13.31L16.44 12.94C16.68 12.7 16.95 12.54 17.23 12.54C17.47 12.54 17.74 12.65 18.04 12.94C18.7 13.6 18.49 14.11 18.05 14.55Z" fill="#476DD6"/>
</svg>
