<svg width="25" height="24" viewBox="0 0 25 24" fill="none" xmlns="http://www.w3.org/2000/svg">
<path d="M22.5 15.94C22.5 18.73 20.26 20.99 17.47 21H17.46H7.55C4.77 21 2.5 18.75 2.5 15.96V15.95C2.5 15.95 2.506 11.524 2.514 9.298C2.515 8.88 2.995 8.646 3.322 8.906C5.698 10.791 9.947 14.228 10 14.273C10.71 14.842 11.61 15.163 12.53 15.163C13.45 15.163 14.35 14.842 15.06 14.262C15.113 14.227 19.267 10.893 21.679 8.977C22.007 8.716 22.489 8.95 22.49 9.367C22.5 11.576 22.5 15.94 22.5 15.94Z" fill="#FBCF5E"/>
<path d="M21.9759 5.674C21.1099 4.042 19.4059 3 17.5299 3H7.54988C5.67388 3 3.96988 4.042 3.10388 5.674C2.90988 6.039 3.00188 6.494 3.32488 6.752L10.7499 12.691C11.2699 13.111 11.8999 13.32 12.5299 13.32C12.5339 13.32 12.5369 13.32 12.5399 13.32C12.5429 13.32 12.5469 13.32 12.5499 13.32C13.1799 13.32 13.8099 13.111 14.3299 12.691L21.7549 6.752C22.0779 6.494 22.1699 6.039 21.9759 5.674Z" fill="#F0B622"/>
</svg>
