<svg width="32" height="32" viewBox="0 0 32 32" fill="none" xmlns="http://www.w3.org/2000/svg">
<path d="M10.3792 9.43388L17.7037 2.10938C19.661 0.152018 22.8345 0.152017 24.7919 2.10938L27.1546 4.47212C29.112 6.42948 29.112 9.60299 27.1546 11.5603L19.8301 18.8848L10.3792 9.43388Z" fill="#F6F5FA"/>
<path d="M2.10938 24.7919C0.152017 22.8345 0.152018 19.661 2.10938 17.7037L9.43388 10.3792L18.8848 19.8301L11.5603 27.1546C9.60299 29.112 6.42948 29.112 4.47212 27.1546L2.10938 24.7919Z" fill="#F6F5FA"/>
<path d="M27.3516 4.64857C24.7031 2.00614 20.4001 2.00614 17.7577 4.64857L13.3274 9.07887C13.091 9.31523 13.091 9.69705 13.3274 9.93341C13.5637 10.1698 13.9455 10.1698 14.1819 9.93341L18.6122 5.50311C20.7819 3.33341 24.3213 3.33341 26.491 5.50311C28.6607 7.67281 28.6607 11.2122 26.491 13.3819L20.3698 19.5092L12.0607 11.2001C11.8243 10.9637 11.4425 10.9637 11.2061 11.2001L4.64857 17.7577C2.00614 20.4061 2.00614 24.7092 4.64857 27.3516C5.97584 28.6728 7.70917 29.3334 9.44857 29.3334C11.188 29.3334 12.9213 28.6728 14.2425 27.3516L18.6728 22.9213C18.9092 22.6849 18.9092 22.3031 18.6728 22.0667C18.4364 21.8304 18.0546 21.8304 17.8183 22.0667L13.388 26.4971C11.2183 28.6667 7.67887 28.6667 5.50917 26.4971C3.33948 24.3274 3.33948 20.788 5.50917 18.6183L11.6364 12.4971L19.9395 20.8001C20.1758 21.0364 20.5577 21.0364 20.794 20.8001L27.3516 14.2425C29.994 11.6001 29.994 7.29705 27.3516 4.64857Z" fill="#003CBF" stroke="#003CBF" stroke-width="0.5"/>
<path d="M18.8546 9.82452L20.6728 8.00634C21.8546 6.82452 23.7758 6.82452 24.9576 8.00634C25.0788 8.12756 25.2303 8.1821 25.3879 8.1821C25.5455 8.1821 25.697 8.12149 25.8182 8.00634C26.0546 7.76998 26.0546 7.38816 25.8182 7.1518C24.1637 5.49725 21.4728 5.49725 19.8182 7.1518L18 8.96998C17.7637 9.20634 17.7637 9.58816 18 9.82452C18.1212 9.94574 18.2728 10.0003 18.4303 10.0003C18.5758 10.0003 18.7334 9.94574 18.8546 9.82452Z" fill="#003CBF" stroke="#003CBF" stroke-width="0.5"/>
<path d="M13.8075 21.509L11.9894 23.3272C10.8075 24.509 8.88632 24.509 7.70451 23.3272C7.58329 23.2059 7.43178 23.1514 7.2742 23.1514C7.11663 23.1514 6.96511 23.212 6.8439 23.3272C6.60754 23.5635 6.60754 23.9453 6.8439 24.1817C8.49845 25.8362 11.1894 25.8362 12.8439 24.1817L14.6621 22.3635C14.8984 22.1272 14.8984 21.7453 14.6621 21.509C14.5409 21.3878 14.3894 21.3332 14.2318 21.3332C14.0863 21.3332 13.9287 21.3878 13.8075 21.509Z" fill="#003CBF" stroke="#003CBF" stroke-width="0.5"/>
</svg>
