<svg width="104" height="104" viewBox="0 0 104 104" fill="none" xmlns="http://www.w3.org/2000/svg">
<path fill-rule="evenodd" clip-rule="evenodd" d="M54.8701 28.0715L45.6777 37.2639L59.8199 51.406L69.0123 42.2136C72.9175 38.3084 72.9175 31.9768 69.0123 28.0715C65.107 24.1663 58.7754 24.1663 54.8701 28.0715ZM57.1553 30.1467C59.8323 27.4696 64.1853 27.4696 66.8624 30.1467C67.4122 30.6965 67.4122 31.5858 66.8624 32.1356L66.8533 32.1447L66.8532 32.1446C66.5816 32.4026 66.2322 32.5457 65.8634 32.5457C65.506 32.5457 65.1478 32.4191 64.8643 32.1356C63.2869 30.5582 60.7216 30.5582 59.1442 32.1356L56.4169 34.8629C56.1334 35.1464 55.7662 35.273 55.427 35.273C55.0696 35.273 54.7115 35.1464 54.428 34.8629C53.8782 34.3131 53.8782 33.4238 54.428 32.874L57.1553 30.1467Z" fill="#D1D5DB"/>
<path fill-rule="evenodd" clip-rule="evenodd" d="M35.071 47.8706C31.1658 51.7759 31.1658 58.1075 35.071 62.0127C38.9763 65.918 45.3079 65.918 49.2132 62.0127L58.4055 52.8204L44.2634 38.6782L35.071 47.8706ZM47.6191 59.6263C44.942 62.3033 40.5891 62.3033 37.912 59.6263C37.3622 59.0764 37.3622 58.1871 37.912 57.6373L37.9211 57.6283L37.9212 57.6284C38.1928 57.3704 38.5422 57.2272 38.911 57.2272C39.2684 57.2272 39.6265 57.3538 39.91 57.6373C41.4875 59.2148 44.0527 59.2148 45.6302 57.6373L48.3575 54.9101C48.641 54.6266 49.0082 54.5 49.3474 54.5C49.7047 54.5 50.0629 54.6266 50.3464 54.9101C50.8962 55.4599 50.8962 56.3492 50.3464 56.899L47.6191 59.6263Z" fill="#D1D5DB"/>
<g opacity="0.4">
<path fill-rule="evenodd" clip-rule="evenodd" d="M78 8.6665H26C18.8067 8.6665 13 14.4298 13 21.5365V68.8132C13 75.9198 18.8067 81.6832 26 81.6832H29.2933C32.76 81.6832 36.0533 83.0265 38.48 85.4532L45.89 92.7765C49.27 96.1132 54.7733 96.1132 58.1533 92.7765L65.5633 85.4532C67.99 83.0265 71.3267 81.6832 74.75 81.6832H78C85.1933 81.6832 91 75.9198 91 68.8132V21.5365C91 14.4298 85.1933 8.6665 78 8.6665ZM60.45 30.3332C60.45 25.6965 56.68 21.8832 52 21.8832C47.32 21.8832 43.55 25.6965 43.5067 30.3332C43.5067 34.9265 47.1033 38.6098 51.6533 38.7832H52.3033C56.81 38.6098 60.45 34.9265 60.45 30.3332ZM40.0833 65.8232C46.6267 70.1998 57.3733 70.1998 63.9167 65.8232C69.68 61.9665 69.68 55.6832 63.9167 51.8265C57.4167 47.4498 46.67 47.4498 40.0833 51.8265C34.32 55.6832 34.32 62.0098 40.0833 65.8232Z" fill="#C4C4C4"/>
<path d="M63.9167 65.8232C57.3733 70.1998 46.6267 70.1998 40.0833 65.8232C34.32 62.0098 34.32 55.6832 40.0833 51.8265C46.67 47.4498 57.4167 47.4498 63.9167 51.8265C69.68 55.6832 69.68 61.9665 63.9167 65.8232Z" fill="#C4C4C4"/>
<path d="M52 21.8832C56.68 21.8832 60.45 25.6965 60.45 30.3332C60.45 34.9265 56.81 38.6098 52.3033 38.7832H51.6533C47.1033 38.6098 43.5067 34.9265 43.5067 30.3332C43.55 25.6965 47.32 21.8832 52 21.8832Z" fill="#C4C4C4"/>
</g>
</svg>
