<svg width="41" height="40" viewBox="0 0 41 40" fill="none" xmlns="http://www.w3.org/2000/svg">
<path fill-rule="evenodd" clip-rule="evenodd" d="M22.5585 5.89244L14.8982 13.5528L26.6833 25.3379L34.3436 17.6775C37.598 14.4232 37.598 9.14681 34.3436 5.89244C31.0893 2.63807 25.8129 2.63807 22.5585 5.89244ZM24.4631 7.62197C26.694 5.39107 30.3215 5.39107 32.5524 7.62197C33.0105 8.08014 33.0105 8.82124 32.5524 9.27941L32.5448 9.28696L32.5447 9.28686C32.3184 9.50188 32.0272 9.62115 31.7198 9.62115C31.422 9.62115 31.1236 9.51565 30.8873 9.27941C29.5728 7.96485 27.4351 7.96485 26.1205 9.27941L23.8478 11.5521C23.6116 11.7884 23.3055 11.8939 23.0229 11.8939C22.7251 11.8939 22.4266 11.7884 22.1904 11.5521C21.7322 11.094 21.7322 10.3529 22.1904 9.8947L24.4631 7.62197Z" fill="#456BD6"/>
<path fill-rule="evenodd" clip-rule="evenodd" d="M6.05943 22.3915C2.80506 25.6459 2.80506 30.9223 6.05943 34.1766C9.3138 37.431 14.5902 37.431 17.8445 34.1766L25.5049 26.5163L13.7198 14.7312L6.05943 22.3915ZM16.5164 32.1886C14.2855 34.4195 10.6581 34.4195 8.42717 32.1886C7.969 31.7304 7.969 30.9893 8.42717 30.5311L8.43472 30.5236L8.43482 30.5237C8.66115 30.3086 8.95233 30.1894 9.25968 30.1894C9.55748 30.1894 9.85594 30.2949 10.0922 30.5311C11.4067 31.8457 13.5444 31.8457 14.859 30.5311L17.1317 28.2584C17.368 28.0221 17.674 27.9167 17.9566 27.9167C18.2544 27.9167 18.5529 28.0221 18.7892 28.2584C19.2473 28.7166 19.2473 29.4577 18.7892 29.9158L16.5164 32.1886Z" fill="#456BD6"/>
</svg>
