<svg width="24" height="24" viewBox="0 0 24 24" fill="none" xmlns="http://www.w3.org/2000/svg">
<path fill-rule="evenodd" clip-rule="evenodd" d="M13.4351 3.53551L8.83887 8.1317L15.9099 15.2028L20.5061 10.6066C22.4587 8.65396 22.4587 5.48813 20.5061 3.53551C18.5535 1.58289 15.3877 1.58289 13.4351 3.53551ZM14.5778 4.57323C15.9163 3.23469 18.0928 3.23469 19.4314 4.57323C19.7063 4.84814 19.7063 5.29279 19.4314 5.56769L19.4268 5.57223L19.4268 5.57217C19.291 5.70118 19.1163 5.77274 18.9319 5.77274C18.7532 5.77274 18.5741 5.70944 18.4324 5.56769C17.6436 4.77896 16.361 4.77896 15.5723 5.56769L14.2086 6.93133C14.0669 7.07308 13.8833 7.13637 13.7137 7.13637C13.535 7.13637 13.3559 7.07308 13.2142 6.93133C12.9393 6.65643 12.9393 6.21177 13.2142 5.93687L14.5778 4.57323Z" fill="currentColor"/>
<path fill-rule="evenodd" clip-rule="evenodd" d="M3.53576 13.4349C1.58313 15.3876 1.58313 18.5534 3.53576 20.506C5.48838 22.4586 8.6542 22.4586 10.6068 20.506L15.203 15.9098L8.13195 8.83875L3.53576 13.4349ZM9.80995 19.3132C8.47141 20.6517 6.29494 20.6517 4.9564 19.3132C4.6815 19.0382 4.6815 18.5936 4.9564 18.3187L4.96093 18.3142L4.96099 18.3142C5.09679 18.1852 5.2715 18.1137 5.4559 18.1137C5.63458 18.1137 5.81366 18.1769 5.95541 18.3187C6.74414 19.1074 8.02676 19.1074 8.81549 18.3187L10.1791 16.9551C10.3209 16.8133 10.5045 16.75 10.6741 16.75C10.8528 16.75 11.0318 16.8133 11.1736 16.9551C11.4485 17.23 11.4485 17.6746 11.1736 17.9495L9.80995 19.3132Z" fill="currentColor"/>
</svg>
