<svg width="15" height="14" viewBox="0 0 15 14" fill="none" xmlns="http://www.w3.org/2000/svg">
<path fill-rule="evenodd" clip-rule="evenodd" d="M6.38492 10.6437L4.94268 12.4792L4.3595 10.8045C4.15634 10.221 3.60622 9.83008 2.98843 9.83008C2.18662 9.83008 1.53662 9.18008 1.53662 8.37827V3.44373C1.53662 2.26803 2.48971 1.31494 3.66541 1.31494H10.7614C11.937 1.31494 12.8901 2.26803 12.8901 3.44373V7.70129C12.8901 8.87699 11.937 9.83008 10.7614 9.83008H8.05882C7.40558 9.83008 6.7885 10.13 6.38492 10.6437ZM6.45643 5.2887C6.45643 6.12475 5.77868 6.8025 4.94263 6.8025C4.10658 6.8025 3.42883 6.12475 3.42883 5.2887C3.42883 4.45265 4.10658 3.77489 4.94263 3.77489C5.77868 3.77489 6.45643 4.45265 6.45643 5.2887ZM7.97037 3.71565C7.67645 3.71565 7.43818 3.95392 7.43818 4.24784C7.43818 4.54177 7.67645 4.78004 7.97037 4.78004H10.8088C11.1027 4.78004 11.341 4.54177 11.341 4.24784C11.341 3.95392 11.1027 3.71565 10.8088 3.71565H7.97037ZM7.97037 5.70251C7.67645 5.70251 7.43818 5.94078 7.43818 6.23471C7.43818 6.52863 7.67645 6.7669 7.97037 6.7669H10.8088C11.1027 6.7669 11.341 6.52863 11.341 6.23471C11.341 5.94078 11.1027 5.70251 10.8088 5.70251H7.97037Z" fill="#666666"/>
</svg>
