<svg width="22" height="22" viewBox="0 0 22 22" fill="none" xmlns="http://www.w3.org/2000/svg">
<path d="M7 20.7L9.54061 17.4665C10.2516 16.5617 11.3386 16.0333 12.4893 16.0333H17.25C19.3211 16.0333 21 14.3544 21 12.2833V4.78332C21 2.71226 19.3211 1.03333 17.25 1.03333H4.75C2.67893 1.03333 1 2.71226 1 4.78333V12.2833C1 14.3544 2.67893 16.0333 4.75 16.0333H5.375" stroke="#B0B5BC" stroke-width="1.5" stroke-linecap="round" stroke-linejoin="round"/>
<circle cx="7.00004" cy="8.03343" r="2.66667" stroke="#B0B5BC" stroke-width="1.5"/>
<path d="M12.3333 6.20004H17.3333M12.3333 9.70004H17.3333" stroke="#B0B5BC" stroke-width="1.5" stroke-linecap="round" stroke-linejoin="round"/>
</svg>
