<svg width="24" height="24" viewBox="0 0 24 24" fill="none" xmlns="http://www.w3.org/2000/svg">
<path opacity="0.4" d="M19.3399 14.4904L18.3399 12.8304C18.1299 12.4604 17.9399 11.7604 17.9399 11.3504V8.82039C17.9399 5.56039 15.2899 2.90039 12.0199 2.90039C8.74994 2.90039 6.09994 5.56039 6.09994 8.82039V11.3504C6.09994 11.7604 5.90994 12.4604 5.69994 12.8204L4.68994 14.4904C4.28994 15.1604 4.19994 15.9004 4.44994 16.5804C4.68994 17.2504 5.25994 17.7704 5.99994 18.0204C7.93994 18.6804 9.97994 19.0004 12.0199 19.0004C14.0599 19.0004 16.0999 18.6804 18.0399 18.0304C18.7399 17.8004 19.2799 17.2704 19.5399 16.5804C19.7999 15.8904 19.7299 15.1304 19.3399 14.4904Z" fill="#EB5757"/>
<path d="M14.2498 3.32C13.5598 3.05 12.8098 2.9 12.0198 2.9C11.2398 2.9 10.4898 3.04 9.7998 3.32C10.2298 2.51 11.0798 2 12.0198 2C12.9698 2 13.8098 2.51 14.2498 3.32Z" fill="#EB5757"/>
<path d="M14.8302 20.01C14.4102 21.17 13.3002 22 12.0002 22C11.2102 22 10.4302 21.68 9.88018 21.11C9.56018 20.81 9.32018 20.41 9.18018 20C9.31018 20.02 9.44018 20.03 9.58018 20.05C9.81018 20.08 10.0502 20.11 10.2902 20.13C10.8602 20.18 11.4402 20.21 12.0202 20.21C12.5902 20.21 13.1602 20.18 13.7202 20.13C13.9302 20.11 14.1402 20.1 14.3402 20.07C14.5002 20.05 14.6602 20.03 14.8302 20.01Z" fill="#EB5757"/>
</svg>
