<svg width="19" height="16" viewBox="0 0 19 16" fill="none" xmlns="http://www.w3.org/2000/svg">
<path d="M18.5662 7.95939C18.5718 7.44847 18.2933 6.97898 17.8436 6.73135L7.36277 0.94946C6.89278 0.683637 6.34042 0.714465 5.90025 1.01415C5.45148 1.31939 5.22305 2.04914 5.35041 2.57674L6.34042 6.67172C6.44149 7.09218 6.81799 7.38883 7.25008 7.38833L13.0729 7.38833C13.3716 7.38277 13.6142 7.62534 13.6086 7.92401C13.6091 8.21662 13.3711 8.45465 13.0729 8.4597L7.24502 8.45465C6.81243 8.45465 6.43644 8.74978 6.33435 9.17025L5.33575 13.2758C5.21497 13.7605 5.35597 14.2461 5.69961 14.5898C5.74004 14.6302 5.78553 14.6757 5.83152 14.7106C6.27573 15.0547 6.85741 15.0997 7.35267 14.8369L17.8335 9.17732C18.2832 8.9398 18.5612 8.46981 18.5662 7.95939Z" fill="#989898"/>
<path opacity="0.4" fill-rule="evenodd" clip-rule="evenodd" d="M1.19619 5.02544C1.06042 4.88967 0.976277 4.70229 0.976984 4.49511C0.976984 4.08074 1.31215 3.74557 1.72652 3.74557L3.65763 3.74487C4.07128 3.74557 4.40716 4.08145 4.40787 4.49511C4.40716 4.90876 4.07128 5.24464 3.65763 5.24535L1.72652 5.24464C1.51933 5.24535 1.33195 5.1612 1.19619 5.02544ZM3.01259 8.52679C2.87682 8.39103 2.79268 8.20365 2.79339 7.99646C2.79339 7.5821 3.12855 7.24693 3.54292 7.24693L5.47403 7.24622C5.88768 7.24693 6.22356 7.58281 6.22427 7.99646C6.22356 8.41012 5.88768 8.746 5.47403 8.7467L3.54292 8.746C3.33574 8.7467 3.14835 8.66256 3.01259 8.52679ZM0.669028 11.2308C0.668321 11.438 0.752467 11.6254 0.888231 11.7612C1.024 11.8969 1.21138 11.9811 1.41856 11.9804L3.34967 11.9811C3.76333 11.9804 4.0992 11.6445 4.09991 11.2308C4.0992 10.8172 3.76333 10.4813 3.34967 10.4806L1.41856 10.4813C1.0042 10.4813 0.669028 10.8165 0.669028 11.2308Z" fill="#989898"/>
</svg>
