<svg width="12" height="30" viewBox="0 0 12 30" fill="none" xmlns="http://www.w3.org/2000/svg">
<path d="M7 1C7 0.447715 6.55228 -2.41412e-08 6 0C5.44772 2.41412e-08 5 0.447715 5 1L7 1ZM6 30L11.7735 20L0.226498 20L6 30ZM5 1L5 21L7 21L7 1L5 1Z" fill="#476DD6"/>
</svg>
