<svg width="32" height="32" viewBox="0 0 32 32" fill="none" xmlns="http://www.w3.org/2000/svg">
<mask id="path-1-inside-1_657_6304" fill="white">
<path fill-rule="evenodd" clip-rule="evenodd" d="M13.2284 2.81469C12.8622 3.36285 12.6667 4.00732 12.6667 4.66659C12.6667 5.55064 13.0179 6.39849 13.643 7.02361C14.2681 7.64873 15.1159 7.99992 16 7.99992C16.6593 7.99992 17.3037 7.80442 17.8519 7.43815C18.4001 7.07188 18.8273 6.55129 19.0796 5.9422C19.3319 5.33311 19.3979 4.66289 19.2693 4.01629C19.1407 3.36968 18.8232 2.77574 18.357 2.30956C17.8908 1.84339 17.2969 1.52592 16.6503 1.3973C16.0037 1.26869 15.3335 1.3347 14.7244 1.58699C14.1153 1.83928 13.5947 2.26652 13.2284 2.81469ZM4.39052 9.72378C4.14048 9.97383 4 10.313 4 10.6666C4 11.0202 4.14048 11.3593 4.39052 11.6094C4.64057 11.8594 4.97971 11.9999 5.33333 11.9999H12V16V29.3333C12 29.6869 12.1405 30.026 12.3905 30.2761C12.6406 30.5261 12.9797 30.6666 13.3333 30.6666C13.687 30.6666 14.0261 30.5261 14.2761 30.2761C14.5262 30.026 14.6667 29.6869 14.6667 29.3333V20.6198C13.0725 19.6977 12 17.9741 12 16C12 13.0545 14.3878 10.6667 17.3333 10.6667C18.6859 10.6667 19.9208 11.1702 20.861 11.9999H26.6667C27.0203 11.9999 27.3594 11.8594 27.6095 11.6094C27.8595 11.3593 28 11.0202 28 10.6666C28 10.313 27.8595 9.97383 27.6095 9.72378C27.3594 9.47373 27.0203 9.33325 26.6667 9.33325H5.33333C4.97971 9.33325 4.64057 9.47373 4.39052 9.72378ZM20 20.6198C19.2155 21.0736 18.3048 21.3333 17.3333 21.3333V29.3333C17.3333 29.6869 17.4738 30.026 17.7239 30.2761C17.9739 30.5261 18.313 30.6666 18.6667 30.6666C19.0203 30.6666 19.3594 30.5261 19.6095 30.2761C19.8595 30.026 20 29.6869 20 29.3333V20.6198Z"/>
</mask>
<path fill-rule="evenodd" clip-rule="evenodd" d="M13.2284 2.81469C12.8622 3.36285 12.6667 4.00732 12.6667 4.66659C12.6667 5.55064 13.0179 6.39849 13.643 7.02361C14.2681 7.64873 15.1159 7.99992 16 7.99992C16.6593 7.99992 17.3037 7.80442 17.8519 7.43815C18.4001 7.07188 18.8273 6.55129 19.0796 5.9422C19.3319 5.33311 19.3979 4.66289 19.2693 4.01629C19.1407 3.36968 18.8232 2.77574 18.357 2.30956C17.8908 1.84339 17.2969 1.52592 16.6503 1.3973C16.0037 1.26869 15.3335 1.3347 14.7244 1.58699C14.1153 1.83928 13.5947 2.26652 13.2284 2.81469ZM4.39052 9.72378C4.14048 9.97383 4 10.313 4 10.6666C4 11.0202 4.14048 11.3593 4.39052 11.6094C4.64057 11.8594 4.97971 11.9999 5.33333 11.9999H12V16V29.3333C12 29.6869 12.1405 30.026 12.3905 30.2761C12.6406 30.5261 12.9797 30.6666 13.3333 30.6666C13.687 30.6666 14.0261 30.5261 14.2761 30.2761C14.5262 30.026 14.6667 29.6869 14.6667 29.3333V20.6198C13.0725 19.6977 12 17.9741 12 16C12 13.0545 14.3878 10.6667 17.3333 10.6667C18.6859 10.6667 19.9208 11.1702 20.861 11.9999H26.6667C27.0203 11.9999 27.3594 11.8594 27.6095 11.6094C27.8595 11.3593 28 11.0202 28 10.6666C28 10.313 27.8595 9.97383 27.6095 9.72378C27.3594 9.47373 27.0203 9.33325 26.6667 9.33325H5.33333C4.97971 9.33325 4.64057 9.47373 4.39052 9.72378ZM20 20.6198C19.2155 21.0736 18.3048 21.3333 17.3333 21.3333V29.3333C17.3333 29.6869 17.4738 30.026 17.7239 30.2761C17.9739 30.5261 18.313 30.6666 18.6667 30.6666C19.0203 30.6666 19.3594 30.5261 19.6095 30.2761C19.8595 30.026 20 29.6869 20 29.3333V20.6198Z" fill="#003CBF"/>
<path d="M13.643 7.02361L14.5858 6.0808V6.0808L13.643 7.02361ZM17.8519 7.43815L17.1111 6.32953L17.1111 6.32953L17.8519 7.43815ZM19.0796 5.9422L20.3114 6.45244L20.3114 6.45244L19.0796 5.9422ZM16.6503 1.3973L16.9104 0.0895888L16.6503 1.3973ZM14.7244 1.58699L14.2141 0.355149L14.7244 1.58699ZM4.39052 9.72378L5.33333 10.6666L4.39052 9.72378ZM4.39052 11.6094L5.33333 10.6666L4.39052 11.6094ZM12 11.9999H13.3333V10.6666H12V11.9999ZM12.3905 30.2761L11.4477 31.2189L11.4477 31.2189L12.3905 30.2761ZM14.2761 30.2761L15.2189 31.2189L15.219 31.2189L14.2761 30.2761ZM14.6667 20.6198H16V19.8508L15.3343 19.4657L14.6667 20.6198ZM20.861 11.9999L19.9787 12.9996L20.3568 13.3333H20.861V11.9999ZM27.6095 11.6094L28.5523 12.5522L28.5523 12.5522L27.6095 11.6094ZM27.6095 9.72378L28.5523 8.78097L28.5523 8.78097L27.6095 9.72378ZM17.3333 21.3333V20H16V21.3333H17.3333ZM20 20.6198H21.3333V18.3082L19.3324 19.4657L20 20.6198ZM17.7239 30.2761L16.781 31.2189L16.7811 31.2189L17.7239 30.2761ZM19.6095 30.2761L20.5523 31.2189L20.5523 31.2189L19.6095 30.2761ZM14 4.66659C14 4.27102 14.1173 3.88434 14.3371 3.55545L12.1198 2.07393C11.607 2.84136 11.3333 3.74361 11.3333 4.66659H14ZM14.5858 6.0808C14.2107 5.70573 14 5.19702 14 4.66659H11.3333C11.3333 5.90426 11.825 7.09125 12.7002 7.96642L14.5858 6.0808ZM16 6.66659C15.4696 6.66659 14.9609 6.45587 14.5858 6.0808L12.7002 7.96642C13.5753 8.84159 14.7623 9.33325 16 9.33325V6.66659ZM17.1111 6.32953C16.7822 6.54929 16.3956 6.66659 16 6.66659V9.33325C16.923 9.33325 17.8252 9.05956 18.5927 8.54678L17.1111 6.32953ZM17.8478 5.43195C17.6964 5.79741 17.44 6.10976 17.1111 6.32953L18.5927 8.54678C19.3601 8.034 19.9582 7.30516 20.3114 6.45244L17.8478 5.43195ZM17.9616 4.27641C18.0387 4.66437 17.9991 5.0665 17.8478 5.43195L20.3114 6.45244C20.6646 5.59972 20.7571 4.66141 20.577 3.75617L17.9616 4.27641ZM17.4142 3.25237C17.6939 3.53208 17.8844 3.88844 17.9616 4.27641L20.577 3.75617C20.3969 2.85092 19.9525 2.0194 19.2998 1.36676L17.4142 3.25237ZM16.3902 2.70502C16.7781 2.78219 17.1345 2.97267 17.4142 3.25237L19.2998 1.36676C18.6472 0.71411 17.8157 0.269653 16.9104 0.0895888L16.3902 2.70502ZM15.2346 2.81883C15.6001 2.66745 16.0022 2.62785 16.3902 2.70502L16.9104 0.0895888C16.0052 -0.0904756 15.0669 0.00193989 14.2141 0.355149L15.2346 2.81883ZM14.3371 3.55545C14.5568 3.22655 14.8692 2.9702 15.2346 2.81883L14.2141 0.355149C13.3614 0.708358 12.6326 1.3065 12.1198 2.07393L14.3371 3.55545ZM5.33333 10.6666H5.33333L3.44771 8.78097C2.94762 9.28107 2.66667 9.95934 2.66667 10.6666H5.33333ZM5.33333 10.6666H5.33333H2.66667C2.66667 11.3738 2.94762 12.0521 3.44771 12.5522L5.33333 10.6666ZM5.33333 10.6666H5.33333L3.44771 12.5522C3.94781 13.0523 4.62609 13.3333 5.33333 13.3333V10.6666ZM12 10.6666H5.33333V13.3333H12V10.6666ZM13.3333 16V11.9999H10.6667V16H13.3333ZM13.3333 29.3333V16H10.6667V29.3333H13.3333ZM13.3333 29.3333L13.3333 29.3333H10.6667C10.6667 30.0405 10.9476 30.7188 11.4477 31.2189L13.3333 29.3333ZM13.3333 29.3333L13.3333 29.3333L11.4477 31.2189C11.9478 31.719 12.6261 31.9999 13.3333 31.9999V29.3333ZM13.3333 29.3333L13.3333 29.3333V31.9999C14.0406 31.9999 14.7189 31.719 15.2189 31.2189L13.3333 29.3333ZM13.3333 29.3333L13.3333 29.3333L15.219 31.2189C15.719 30.7188 16 30.0405 16 29.3333H13.3333ZM13.3333 20.6198V29.3333H16V20.6198H13.3333ZM10.6667 16C10.6667 18.4693 12.0098 20.6233 13.999 21.774L15.3343 19.4657C14.1352 18.772 13.3333 17.4789 13.3333 16H10.6667ZM17.3333 9.33333C13.6514 9.33333 10.6667 12.3181 10.6667 16H13.3333C13.3333 13.7909 15.1242 12 17.3333 12V9.33333ZM21.7433 11.0002C20.5689 9.96375 19.0231 9.33333 17.3333 9.33333V12C18.3486 12 19.2728 12.3766 19.9787 12.9996L21.7433 11.0002ZM26.6667 10.6666H20.861V13.3333H26.6667V10.6666ZM26.6667 10.6666L26.6667 10.6666V13.3333C27.3739 13.3333 28.0522 13.0523 28.5523 12.5522L26.6667 10.6666ZM26.6667 10.6666L26.6667 10.6666L28.5523 12.5522C29.0524 12.0521 29.3333 11.3738 29.3333 10.6666H26.6667ZM26.6667 10.6666L26.6667 10.6666H29.3333C29.3333 9.95935 29.0524 9.28107 28.5523 8.78097L26.6667 10.6666ZM26.6667 10.6666L26.6667 10.6666L28.5523 8.78097C28.0522 8.28087 27.3739 7.99992 26.6667 7.99992V10.6666ZM5.33333 10.6666H26.6667V7.99992H5.33333V10.6666ZM5.33333 10.6666H5.33333V7.99992C4.62609 7.99992 3.94781 8.28087 3.44771 8.78097L5.33333 10.6666ZM17.3333 22.6667C18.5454 22.6667 19.6857 22.342 20.6676 21.774L19.3324 19.4657C18.7454 19.8052 18.0641 20 17.3333 20V22.6667ZM18.6667 29.3333V21.3333H16V29.3333H18.6667ZM18.6667 29.3333L18.6667 29.3333H16C16 30.0405 16.281 30.7188 16.781 31.2189L18.6667 29.3333ZM18.6667 29.3333L18.6667 29.3333L16.7811 31.2189C17.2811 31.719 17.9594 31.9999 18.6667 31.9999V29.3333ZM18.6667 29.3333L18.6667 29.3333V31.9999C19.3739 31.9999 20.0522 31.719 20.5523 31.2189L18.6667 29.3333ZM18.6667 29.3333L18.6667 29.3333L20.5523 31.2189C21.0524 30.7188 21.3333 30.0405 21.3333 29.3333H18.6667ZM18.6667 20.6198V29.3333H21.3333V20.6198H18.6667Z" fill="#003CBF" mask="url(#path-1-inside-1_657_6304)"/>
<path d="M20.3333 16C20.3333 17.6568 18.9901 19 17.3333 19C15.6764 19 14.3333 17.6568 14.3333 16C14.3333 14.3432 15.6764 13 17.3333 13C18.9901 13 20.3333 14.3432 20.3333 16Z" fill="#F6F5FA" stroke="#003CBF" stroke-width="2" stroke-linecap="round" stroke-linejoin="round"/>
<path d="M24 22.6667L20 18.6667" stroke="#003CBF" stroke-width="2" stroke-linecap="round" stroke-linejoin="round"/>
</svg>
