<svg width="41" height="40" viewBox="0 0 41 40" fill="none" xmlns="http://www.w3.org/2000/svg">
<g clip-path="url(#clip0_657_2117)">
<circle cx="19.9999" cy="4.66667" r="4.66667" fill="#476DD6"/>
<path fill-rule="evenodd" clip-rule="evenodd" d="M8.71984 8.46121C11.5706 5.50419 15.5698 3.66675 19.9999 3.66675C20.5522 3.66675 20.9999 3.21903 20.9999 2.66675C20.9999 2.11446 20.5522 1.66675 19.9999 1.66675C15.0046 1.66675 10.4921 3.74127 7.28 7.0731C6.89668 7.4707 6.90826 8.10376 7.30586 8.48708C7.70346 8.87039 8.33652 8.85881 8.71984 8.46121ZM27.1979 3.19504C26.6936 2.96981 26.1022 3.19601 25.877 3.70028C25.6517 4.20455 25.878 4.79593 26.3822 5.02116C30.4678 6.84598 33.6289 10.3696 34.9676 14.6911C35.1311 15.2186 35.6912 15.5138 36.2188 15.3504C36.7463 15.1869 37.0415 14.6268 36.8781 14.0992C35.3674 9.22277 31.8039 5.25234 27.1979 3.19504ZM5.5705 13.2202C5.78619 12.7118 5.54888 12.1248 5.04045 11.9091C4.53203 11.6934 3.94502 11.9307 3.72933 12.4391C3.29627 13.46 2.95641 14.53 2.72048 15.6384C2.63126 16.0575 2.55691 16.4821 2.498 16.9116C2.44752 17.2796 2.40839 17.6511 2.38095 18.0258C2.34933 18.4577 2.33325 18.8938 2.33325 19.3334C2.33325 25.114 5.11055 30.2461 9.39934 33.4675C9.84093 33.7992 10.4678 33.7101 10.7995 33.2685C11.1312 32.827 11.0421 32.2001 10.6005 31.8684C6.79297 29.0085 4.33325 24.4583 4.33325 19.3334C4.33325 18.9426 4.34755 18.5552 4.37561 18.1719C4.39997 17.8393 4.43469 17.5097 4.47945 17.1834C4.53168 16.8026 4.59759 16.4262 4.67665 16.0548C4.8857 15.0727 5.18679 14.1247 5.5705 13.2202ZM37.6666 19.3334C37.6666 18.7811 37.2189 18.3334 36.6666 18.3334C36.1143 18.3334 35.6666 18.7811 35.6666 19.3334C35.6666 19.8957 35.637 20.4511 35.5792 20.9981C36.2453 21.9664 36.7217 23.027 37.0084 24.1273C37.4372 22.603 37.6666 20.995 37.6666 19.3334Z" fill="#476DD6"/>
<path fill-rule="evenodd" clip-rule="evenodd" d="M18.8375 31.954V37.2231C18.8375 38.4482 17.8443 39.4414 16.6191 39.4414H15.8919C14.6668 39.4414 13.6736 38.4482 13.6736 37.2231V27.2301C13.6049 24.4962 13.3785 18.7446 12.9984 16.2044C12.9538 15.9062 12.6941 15.6949 12.3927 15.6949H3.17201C1.78826 15.6949 0.666504 14.5732 0.666504 13.1894C0.666504 11.8072 1.78583 10.6861 3.16803 10.6839L13.9687 10.6667C15.0641 10.8222 15.6297 11.0023 16.1506 11.1682C16.9041 11.4082 17.5641 11.6184 19.5997 11.6808L20.1161 11.702C22.1517 11.6395 22.8117 11.4293 23.5653 11.1893C24.0862 11.0234 24.6518 10.8433 25.7472 10.6879H36.5353C37.9238 10.6879 39.0494 11.8135 39.0494 13.202C39.0494 14.5905 37.9238 15.716 36.5353 15.716H31.2558C30.1097 15.716 29.0497 16.0777 28.2099 16.705C25.3637 16.457 22.4308 17.4193 20.2582 19.5919C16.9098 22.9403 16.4362 28.0947 18.8375 31.954ZM20.8784 34.3125V37.2442C20.8784 38.4693 21.8716 39.4625 23.0967 39.4625H23.824C25.0491 39.4625 26.0423 38.4693 26.0423 37.2442V36.5841C24.1872 36.3449 22.3868 35.5877 20.8784 34.3125Z" fill="#476DD6"/>
<path opacity="0.4" fill-rule="evenodd" clip-rule="evenodd" d="M33.2289 20.7708C29.9789 17.5208 24.6873 17.5208 21.4373 20.7708C18.1873 24.0208 18.1873 29.3124 21.4373 32.5624C24.6873 35.8124 29.9789 35.8124 33.2289 32.5624C36.4789 29.3124 36.4789 24.0208 33.2289 20.7708ZM25.6664 21.6666C25.6664 20.7461 26.4126 19.9999 27.3331 19.9999C28.2536 19.9999 28.9998 20.7461 28.9998 21.6666V24.9999H32.3331C33.2536 24.9999 33.9998 25.7461 33.9998 26.6666C33.9998 27.5871 33.2536 28.3333 32.3331 28.3333H28.9998V31.6666C28.9998 32.5871 28.2536 33.3333 27.3331 33.3333C26.4126 33.3333 25.6664 32.5871 25.6664 31.6666V28.3333H22.3331C21.4126 28.3333 20.6664 27.5871 20.6664 26.6666C20.6664 25.7461 21.4126 24.9999 22.3331 24.9999H25.6664V21.6666Z" fill="#0E3ECF"/>
</g>
<defs>
<clipPath id="clip0_657_2117">
<rect width="40" height="40" fill="white" transform="translate(0.666504)"/>
</clipPath>
</defs>
</svg>
