<svg width="20" height="20" viewBox="0 0 20 20" fill="none" xmlns="http://www.w3.org/2000/svg">
<mask id="mask0_19244_184" style="mask-type:alpha" maskUnits="userSpaceOnUse" x="0" y="0" width="20" height="20">
<rect width="20" height="20" fill="#D9D9D9"/>
</mask>
<g mask="url(#mask0_19244_184)">
<path d="M3.33317 18.3334C2.87484 18.3334 2.48248 18.1702 2.15609 17.8438C1.8297 17.5174 1.6665 17.125 1.6665 16.6667V6.66669C1.6665 6.20835 1.8297 5.81599 2.15609 5.4896C2.48248 5.16321 2.87484 5.00002 3.33317 5.00002H6.6665V3.33335C6.6665 2.87502 6.8297 2.48266 7.15609 2.15627C7.48248 1.82988 7.87484 1.66669 8.33317 1.66669H11.6665C12.1248 1.66669 12.5172 1.82988 12.8436 2.15627C13.17 2.48266 13.3332 2.87502 13.3332 3.33335V5.00002H16.6665C17.1248 5.00002 17.5172 5.16321 17.8436 5.4896C18.17 5.81599 18.3332 6.20835 18.3332 6.66669V16.6667C18.3332 17.125 18.17 17.5174 17.8436 17.8438C17.5172 18.1702 17.1248 18.3334 16.6665 18.3334H3.33317ZM8.33317 5.00002H11.6665V3.33335H8.33317V5.00002ZM9.1665 12.5V14.1667C9.1665 14.4028 9.24637 14.6007 9.40609 14.7604C9.56581 14.9202 9.76373 15 9.99984 15C10.2359 15 10.4339 14.9202 10.5936 14.7604C10.7533 14.6007 10.8332 14.4028 10.8332 14.1667V12.5H12.4998C12.7359 12.5 12.9339 12.4202 13.0936 12.2604C13.2533 12.1007 13.3332 11.9028 13.3332 11.6667C13.3332 11.4306 13.2533 11.2327 13.0936 11.0729C12.9339 10.9132 12.7359 10.8334 12.4998 10.8334H10.8332V9.16669C10.8332 8.93058 10.7533 8.73266 10.5936 8.57294C10.4339 8.41322 10.2359 8.33335 9.99984 8.33335C9.76373 8.33335 9.56581 8.41322 9.40609 8.57294C9.24637 8.73266 9.1665 8.93058 9.1665 9.16669V10.8334H7.49984C7.26373 10.8334 7.06581 10.9132 6.90609 11.0729C6.74636 11.2327 6.6665 11.4306 6.6665 11.6667C6.6665 11.9028 6.74636 12.1007 6.90609 12.2604C7.06581 12.4202 7.26373 12.5 7.49984 12.5H9.1665Z" fill="#20409B"/>
</g>
</svg>
