<svg width="32" height="33" viewBox="0 0 32 33" fill="none" xmlns="http://www.w3.org/2000/svg">
<path d="M21.0666 2.9666C20.5199 2.41993 19.5732 2.79326 19.5732 3.55326V8.2066C19.5732 10.1533 21.2266 11.7666 23.2399 11.7666C24.5066 11.7799 26.2666 11.7799 27.7732 11.7799C28.5332 11.7799 28.9332 10.8866 28.3999 10.3533C26.4799 8.41993 23.0399 4.93993 21.0666 2.9666Z" fill="#0E7C71"/>
<path d="M27.3335 13.6065H23.4802C20.3202 13.6065 17.7468 11.0332 17.7468 7.87319V4.01986C17.7468 3.28652 17.1468 2.68652 16.4135 2.68652H10.7602C6.6535 2.68652 3.3335 5.35319 3.3335 10.1132V21.9265C3.3335 26.6865 6.6535 29.3532 10.7602 29.3532H21.2402C25.3468 29.3532 28.6668 26.6865 28.6668 21.9265V14.9399C28.6668 14.2065 28.0668 13.6065 27.3335 13.6065Z" fill="#0E7C71"/>
<path d="M8.4115 15.2231L9.34401 16.8256L10.2765 15.2231H11.1487L9.82083 17.399L11.1819 19.6171H10.3007L9.34401 17.9844L8.38736 19.6171H7.50313L8.86719 17.399L7.53633 15.2231H8.4115ZM14.4924 19.0165V19.6171H12.2864V19.0165H14.4924ZM12.4977 15.2231V19.6171H11.7402V15.2231H12.4977ZM17.3896 18.4854C17.3896 18.3948 17.3755 18.3144 17.3473 18.2439C17.3212 18.1735 17.2739 18.1092 17.2055 18.0508C17.1371 17.9925 17.0405 17.9361 16.9158 17.8818C16.793 17.8255 16.6361 17.7681 16.445 17.7098C16.2358 17.6454 16.0426 17.574 15.8656 17.4955C15.6905 17.415 15.5376 17.3225 15.4069 17.2179C15.2761 17.1113 15.1745 16.9895 15.1021 16.8527C15.0296 16.7139 14.9934 16.554 14.9934 16.3729C14.9934 16.1938 15.0306 16.0309 15.1051 15.884C15.1815 15.7371 15.2892 15.6104 15.428 15.5037C15.5688 15.3951 15.7348 15.3116 15.9259 15.2533C16.1171 15.1929 16.3283 15.1627 16.5597 15.1627C16.8856 15.1627 17.1663 15.2231 17.4016 15.3438C17.6391 15.4645 17.8211 15.6265 17.9479 15.8297C18.0766 16.0329 18.141 16.2572 18.141 16.5027H17.3896C17.3896 16.3578 17.3584 16.23 17.296 16.1194C17.2357 16.0067 17.1431 15.9182 17.0184 15.8538C16.8957 15.7894 16.7397 15.7572 16.5506 15.7572C16.3716 15.7572 16.2227 15.7844 16.104 15.8387C15.9853 15.893 15.8968 15.9665 15.8384 16.059C15.7801 16.1516 15.7509 16.2562 15.7509 16.3729C15.7509 16.4554 15.77 16.5308 15.8082 16.5992C15.8465 16.6656 15.9048 16.728 15.9833 16.7863C16.0617 16.8427 16.1603 16.896 16.279 16.9463C16.3977 16.9966 16.5375 17.0449 16.6985 17.0911C16.9419 17.1636 17.1542 17.244 17.3353 17.3326C17.5163 17.4191 17.6672 17.5177 17.7879 17.6283C17.9086 17.739 17.9992 17.8647 18.0595 18.0055C18.1199 18.1444 18.1501 18.3023 18.1501 18.4793C18.1501 18.6644 18.1129 18.8314 18.0384 18.9803C17.964 19.1272 17.8573 19.2529 17.7185 19.3575C17.5817 19.4601 17.4167 19.5396 17.2236 19.5959C17.0325 19.6503 16.8192 19.6774 16.5838 19.6774C16.3726 19.6774 16.1643 19.6493 15.9591 19.5929C15.7559 19.5366 15.5708 19.4511 15.4038 19.3364C15.2368 19.2197 15.1041 19.0749 15.0055 18.9018C14.9069 18.7268 14.8576 18.5226 14.8576 18.2892H15.6151C15.6151 18.4321 15.6392 18.5538 15.6875 18.6544C15.7378 18.755 15.8072 18.8375 15.8957 18.9018C15.9843 18.9642 16.0869 19.0105 16.2036 19.0407C16.3223 19.0708 16.449 19.0859 16.5838 19.0859C16.7609 19.0859 16.9087 19.0608 17.0274 19.0105C17.1481 18.9602 17.2387 18.8898 17.299 18.7992C17.3594 18.7087 17.3896 18.6041 17.3896 18.4854ZM19.3964 15.2231L20.329 16.8256L21.2615 15.2231H22.1336L20.8058 17.399L22.1668 19.6171H21.2856L20.329 17.9844L19.3723 19.6171H18.4881L19.8521 17.399L18.5213 15.2231H19.3964Z" fill="white"/>
</svg>
