{
  "common": {
    "appName": "HODO",
    "and": "và",
    "notification": "Thông báo",
    "finish": "Hoàn thành",
    "underDeveloping": "Tính năng đang phát triển",
    "day": "ngày",
    "errorOpenFile": "Lỗi khi cố gắng mở tệp này",
    "doctor": "Bác sĩ",
    "mainDoctor": "Bác sĩ chính",
    "treatmentDoctor": "Bác sĩ điều trị",
    "supporter": "Người hỗ trợ",
    "patient": "Bệnh nhân",
    "relative": "Người thân",
    "workspace": "Cơ sở y tế",
    "time": "Thời gian",
    "onDate": "ngày",
    "healthInfo": "Thông tin sức khỏe",
    "careplan": "Hồ sơ sức khỏe",
    "male": "Nam",
    "female": "Nữ",
    "age": "tuổi",
    "updating": "Đang cập nhật",
    "today": "Hôm nay",
    "now": "Hiện tại",
    "skip": "Bỏ qua",
    "yes": "Có",
    "no": "Không",
    "ok": "OK",
    "cancel": "Huỷ",
    "every": "Hàng",
    "perOne": "một lần",
    "selectDoctor": "Chọn Bác sĩ",
    "inviteDoctor": "Mời bác sĩ",
    "createAppointment": "Đặt lịch",
    "createCareplan": "Tạo hồ sơ sức khỏe",
    "sendInvitation": "Gửi lời mời",
    "add": "Thêm",
    "invite": "Mời",
    "seeDetail": "Xem chi tiết",
    "continue": "Tiếp tục",
    "change": "Thay đổi",
    "edit": "Chỉnh sửa",
    "getStarted": "Bắt đầu",
    "end": "Kết thúc",
    "openReport": "Xem báo cáo",
    "result": "Kết quả",
    "update": "Cập nhật",
    "seeMore": "Xem thêm",
    "showLess": "Thu gọn",
    "confirm": "Xác nhận",
    "save": "Lưu",
    "send": "Gửi",
    "close": "Đóng",
    "agree": "Đồng ý",
    "circle": "Circle",
    "clinic": "Khoa",
    "startTime": "Thời gian bắt đầu",
    "endTime": "Thời gian kết thúc",
    "from": "Từ",
    "to": "Đến",
    "inTime": "Giờ vào",
    "outTime": "Giờ ra",
    "cost": "Chi phí",
    "room": "Phòng",
    "invalidPath": "Đường dẫn không hợp lệ",
    "minutes": "phút",
    "emptyList": "Danh sách trống"
  },
  "calendar": {
    "monthNames": {
      "January": "Tháng 1",
      "February": "Tháng 2",
      "March": "Tháng 3",
      "April": "Tháng 4",
      "May": "Tháng 5",
      "June": "Tháng 6",
      "July": "Tháng 7",
      "August": "Tháng 8",
      "September": "Tháng 9",
      "October": "Tháng 10",
      "November": "Tháng 11",
      "December": "Tháng 12"
    },
    "monthNamesShort": {
      "January": "Th1",
      "February": "Th2",
      "March": "Th3",
      "April": "Th4",
      "May": "Th5",
      "June": "Th6",
      "July": "Th7",
      "August": "Th8",
      "September": "Th9",
      "October": "Th10",
      "November": "Th11",
      "December": "Th12"
    },
    "dayNames": {
      "Sunday": "Chủ nhật",
      "Monday": "Thứ 2",
      "Tuesday": "Thứ 3",
      "Wednesday": "Thứ 4",
      "Thursday": "Thứ 5",
      "Friday": "Thứ 6",
      "Saturday": "Thứ 7"
    },
    "dayNamesShort": {
      "Sunday": "CN",
      "Monday": "T2",
      "Tuesday": "T3",
      "Wednesday": "T4",
      "Thursday": "T5",
      "Friday": "T6",
      "Saturday": "T7"
    },
    "today": "Hôm nay",
    "everyDay": "Hàng ngày",
    "everyWeek": "hàng tuần"
  },
  "headerText": {
    "otp": "Thay đổi SĐT",
    "editProfile1": "Thông tin cá nhân",
    "editProfile2": "Thông tin người thân",
    "createHealthProfile": "Tạo Hồ Sơ Sức Khỏe",
    "inviteDoctor": "Mời Bác sĩ",
    "doctorDetail": "Chi tiết bác sĩ",
    "doctorList": "Danh sách bác sĩ",
    "MedicalBookScreen": "Danh sách sổ khám bệnh",
    "DetailHealthyRecord": "Chi tiết sổ khám bệnh",
    "ConsultationScreen": "Kết quả khám bệnh'",
    "IndicationScreen": "Chi tiết KQXN",
    "news": "Thông tin hữu ích",
    "newsDetail": "Chi tiết thông tin",
    "adviceList": "Lời dặn của bác sĩ",
    "topicDetailQuestion": "Tin nhắn",
    "topicDetailAppointment": "Thông tin giường",
    "sentMedias": "Ảnh, tài liệu đã gửi",
    "newMessage": "Soạn tin nhắn",
    "topicHistories": "Lịch sử chỉnh sửa",
    "symptom": "Triệu chứng",
    "symptomAddNew": "Thêm triệu chứng mới",
    "symptomUpdate": "Triệu chứng",
    "symptomHealthStats": "Cập nhật chỉ số",
    "symptomHistory": "Lịch sử cập nhật triệu chứng",
    "report": "Báo cáo",
    "symptoms": "Dấu hiệu bất thường",
    "medicine": "Thuốc",
    "createAppointment": "Đặt lịch",
    "notifications": "Thông báo",
    "redeem": "Lời cảm ơn từ Hodo",
    "memberBenefits": "Quyền lợi thành viên",
    "inviteCode": "Mã giới thiệu",
    "buyPackage": "Hội viên HODO",
    "scanQR": "Mời bác sĩ",
    "scanInvite": "Mời bác sĩ",
    "selectAppointmentType": "Đặt lịch với",
    "ConsultingRoom": "Danh sách Phòng Tư vấn",
    "TypeAppointment": "Đặt lịch",
    "Invoice": "Xác nhận lịch",
    "appointmentDetail": "Thông tin lịch hẹn",
    "appointmentChooseDate": "Chọn ngày khám",
    "appointmentChooseTime": "Chọn khung thời gian",
    "pacs": "Chẩn đoán hình ảnh",
    "webView": "Chi tiết file",
    "message": "Tin nhắn"
  },
  "createHealthProfileScreen": {
    "createHealthProfile": "Tạo hồ sơ sức khoẻ",
    "createHealthProfileFor": "Tạo hồ sơ sức khoẻ cho",
    "diagnose": "Chẩn đoán",
    "diagnosePlaceholder": "Nhập tên bệnh của bạn",
    "stage": "Diễn biến bệnh",
    "stagePlaceholder": "Bệnh đang ở giai đoạn nào",
    "currentStatus": "Tình trạng hiện tại",
    "currentStatusPlaceholder": "Tình trạng bệnh hiện tại ra sao",
    "treatment": "Điều trị",
    "treatmentPlaceholder": "Quá trình điều trị",
    "otherDisease": "Bệnh khác",
    "otherDiseasePlaceholder": "Vd: Tiểu đường, Viêm khớp",
    "contact": "Người liên hệ",
    "contactFullName": "Họ và Tên",
    "contactFullNamePlaceholder": "Nguyễn Văn A",
    "contactPhoneNumber": "Số điện thoại",
    "contactPhoneNumberPlaceholder": "Số điện thoại",
    "contactRelationship": "Mối quan hệ ( với người bệnh )",
    "contactRelationshipPlaceholder": "Vd: Vợ, chồng, con",
    "saveAndInviteDoctor": "Lưu và mời Bác sĩ",
    "call": "Gọi điện",
    "inbox": "Nhắn tin",
    "tab": {
      "newUpdate": "Cập nhật mới",
      "privateDoctor": "Bác sĩ riêng của bạn",
      "upDateInfoHealthNow": "Cập nhật thông tin sức khỏe ngay",
      "upDateInfoFileNow": "Cập nhật tài liệu ngay"
    },
    "YouHaveCreated": "Bạn đã tạo",
    "notDoctorPrivate": "Bạn chưa có bác sĩ riêng nào"
  },
  "errors": {
    "invalidEmail": "Invalid email address.",
    "error": "Lỗi!!!"
  },
  "storybook": {
    "placeholder": "Placeholder",
    "field": "Field"
  },
  "doctorDetailScreen": {
    "doctorDetail": "Chi tiết bác sĩ",
    "call": "Gọi bác sĩ",
    "chat": "Soạn tin nhắn",
    "field": "Lĩnh vực nổi bật",
    "introduction": "Giới thiệu",
    "work": "Công việc",
    "workPlace": "Nơi công tác",
    "position": "Chức vụ",
    "education": "Học vấn",
    "career": "Quá trình công tác",
    "inviteDoctor": "Mời Bác sĩ tham gia HSSK",
    "noHPTitle": "Không có hồ sơ sức khỏe",
    "noHPvalue": "Vui lòng tạo hồ sơ sức khỏe để mời bác sĩ"
  },
  "inviteDoctor": {
    "mainDoctorDescription": "* Bác sĩ chính là Bác sĩ quyết định pháp đồ điều trị, điều trị trực tiếp, trưởng phó đơn vị",
    "treatmentDoctorDescription": "* Bác sĩ trực tiếp điều trị",
    "saveHealthProfileSuccessfully": "Lưu Hồ Sơ Sức Khoẻ Thành Công",
    "enterDoctorsName": "Nhập tên Bác sĩ",
    "enterInvitationMessage": "Viết lời nhắn để Bác sĩ tiếp nhận nhanh hơn"
  },
  "InviteDoctorWithoutHealthProfile": {
    "healthProfile": "Hồ sơ sức khỏe:",
    "HPNote": "Bác sĩ đã được mời hoặc đã tham gia Hồ sơ sức khỏe",
    "roleNote": "Hồ sơ sức khỏe đã có Bác sĩ chính, thao tác này sẽ thay thế Bác sĩ chính hiện tại",
    "doctorInfo": "Thông tin bác sĩ:",
    "doctorRole": "Chọn là:",
    "selectHP": "Chọn Hồ sơ sức khỏe"
  },
  "tabBar": {
    "home": "Trang chủ",
    "message": "Tin nhắn",
    "healthProfile": "Hồ sơ SK",
    "calendar": "Lịch",
    "account": "Tài khoản"
  },
  "topicDetailScreen": {
    "lastEdit": "Sửa lần cuối",
    "sentDocuments": "Ảnh, tài liệu đã gửi",
    "history": "Lịch sử",
    "inputYourAnswer": "Nhập câu trả lời của bạn......",
    "inputContent": "Nhập nội dung ..."
  },
  "healthProfile": {
    "doctorList": "Danh sách bác sĩ"
  },
  "home": {
    "guideLineTitle": "3 Bước để an tâm sức khỏe cùng HODO",
    "guideLineButtonLabel": "Thực hiện ngay",
    "product": "Sản phẩm",
    "service": "Dịch vụ",
    "information": "Thông tin"
  },
  "sentMediasScreen": {
    "sendMedias": "Ảnh, tài liệu đã gửi"
  },
  "appointmentDetailScreen": {
    "appointmentDetail": "Thông tin lịch hẹn",
    "onlineAdvise": "Tư vấn online",
    "appointmentWith": "Đặt lịch hẹn với:",
    "note": "Ghi chú",
    "price": "Đơn giá",
    "pay": "Thanh toán",
    "seeReceipt": "Xem biên lai",
    "rejected": "Bạn đã từ chối lịch hẹn này",
    "haveToPay": "Bạn cần thanh toán cho lịch hẹn này",
    "confirmingPayment": "Chờ xác nhận thanh toán",
    "paid": "Đã thanh toán",
    "noNote": "Không có ghi chú",
    "noDoctor": "Không có tên bác sĩ",
    "noPatient": "Không có tên bệnh nhân",
    "clinicAppointment": "Hẹn đến phòng khám"
  },
  "symptomsScreen": {
    "symptoms": "Dấu hiệu cảnh báo",
    "symptomList": "Các dấu hiệu bất thường bạn gặp phải từ ngày",
    "noDescription": "Không có mô tả",
    "noName": "Không có tên",
    "noSymptoms": "Không có dấu hiệu bất thường nào",
    "RecentData": "Dữ liệu gần đây"
  },
  "healthIndexChartScreen": {
    "index": "Chỉ số",
    "fromDate": "từ ngày",
    "data": "Dữ liệu"
  },
  "components": {
    "chooseTime": "Chọn thời gian",
    "month": "Tháng",
    "alertImage": "Không thể mở được ảnh",
    "alertLink": "Không thể tìm thấy URL",
    "copied": "Đã sao chép",
    "copiedSuccessfully": "Sao chép thành công",
    "downloaded": "Tải xuống thành công",
    "downloadedSuccessfully": "Đã tải mã QR về máy",
    "goldCard": "Gold Card",
    "qrCode": "QR code",
    "addCard": "Liên kết thẻ",
    "enterCardNumber": "Nhập số thẻ in trên Gold Card",
    "alertCard": "Mã Gold Card không hợp lệ! Vui lòng thử lại",
    "download": "Tải về",
    "hodoMember": "Trở thành thành viên của HODO để nhận được nhiều ưu đãi",
    "member": "Thành viên",
    "expiredDate": "Ngày hết hạn:",
    "forever": "Vĩnh viễn",
    "hodoGift": "Tri ân sự đồng hành của bạn, HODO gửi tặng bạn gói thành viên",
    "acceptGift": "Nhận ngay",
    "online": "Cuộc gọi video",
    "offline": "Hẹn đến phòng khám",
    "noNetwork": "Không có kết nối mạng",
    "alertNetwork": "Vui lòng kiểm tra kết nối mạng của bạn",
    "alertError": "Có lỗi xảy ra, vui lòng thử lại sau!",
    "showMore": "Mở rộng",
    "showLess": "Thu gọn",
    "workPlace": "Nơi làm việc",
    "major": "Chuyên khoa",
    "noDoctor": "Chưa có bác sĩ nào được mời"
  },
  "appointment": {
    "noReason": "Bệnh nhân Không cung cấp lý do hủy lịch hẹn.",
    "status1": "Bạn cần thanh toán cho lịch hẹn này",
    "status2": "Chờ xác nhận thanh toán",
    "status3": "Đã thanh toán",
    "status4": "Lịch hẹn đã bị huỷ"
  },
  "DoctorListPart": {
    "isConnected": "Đã kết nối",
    "isWaiting": "Đang chờ",
    "doctor": "BS",
    "memberFeature": "Tính năng chỉ dành cho thành viên của HODO",
    "buyPackage": "Nâng cấp ngay!"
  },
  "NewMedicinesModal": {
    "noMedicineName": "Không có tên thuốc",
    "noDoctorNote": "Không có ghi chú của bác sĩ"
  },
  "ProfileHeader": {
    "updateAvatarSuccessfully": "Cập nhật ảnh đại diện thành công"
  },
  "AccountScreen": {
    "saveDocument": "Lưu trữ và bảo vệ sức khỏe gia đình bạn cùng HODO",
    "saveDocumentEvip": "Lưu trữ và bảo vệ sức khỏe gia đình bạn \ncùng HODO - eVIPCare",
    "addPerson": "Thêm hồ sơ",
    "information": "Thông tin",
    "personalInformation": "Thông tin cá nhân",
    "detail": "Chi tiết",
    "lastUpdate": "Cập nhật lần cuối",
    "patient": "Hồ sơ người thân",
    "language": "Ngôn ngữ",
    "vietnamese": "Tiếng Việt",
    "hotline": "Hotline",
    "mail": "Câu hỏi thường gặp",
    "aboutHodo": "Về HODO",
    "logOut": "Đăng xuất",
    "version": "Phiên bản"
  },
  "AdviceListScreen": {
    "noContent": "Bác sĩ chưa có lưu ý cho bạn!"
  },
  "BuyPackage": {
    "interrupt": "Hệ thống thanh toán đang gặp vấn đề, vui lòng thử lại sau",
    "upgradeTo": "Nâng cấp lên hạng %{rank} để nhận được nhiều ưu đãi hơn.",
    "upgrade": "Nâng cấp",
    "package": "Bạn đang sử dụng gói %{package}",
    "expirationDate": "Ngày hết hạn",
    "getFree": "Nhận miễn phí",
    "free": "Miễn phí",
    "perMonth": "/Tháng",
    "slogan": "An tâm sống khoẻ",
    "membershipGift": "Được nhiều ưu đãi khi có mã giới thiệu từ Bác sĩ.",
    "useNow": " Sử dụng ngay ",
    "contactHodo": "Liên hệ HODO",
    "payment": "Thanh toán qua ",
    "appleStore": "Apple Store",
    "googleStore": "Google Play Store",
    "autoRestore": "Gói sẽ tự động gia hạn và có thể huỷ trong 24h trước ngày hết hạn",
    "restore": "Restore",
    "security": "Chính sách bảo mật",
    "rule": "Điều khoản sử dụng",
    "hotline": "Bạn cần được tư vấn trực tiếp?"
  },
  "MembershipPayment": {
    "agree": "Bạn chưa đồng ý với Chính sách bảo mật và Điều khoản sử dụng của HODO.",
    "title": "Phương thức thanh toán",
    "hodoMemberPay": "Thanh toán gói thành viên Hodo",
    "free": "Miễn phí",
    "agreeTo": "Tôi đã đọc và đồng ý với",
    "security": "Chính sách bảo mật",
    "rule": "Điều khoản sử dụng",
    "acceptTermsConditionPartTwo": " của HODO.",
    "payment": "Thanh toán qua ",
    "appleStore": "Apple Store",
    "googleStore": "Google Play Store",
    "autoRestore": "Gói sẽ tự động gia hạn và có thể hủy trong vòng 24h trước ngày hết hạn",
    "congratulation": "Chúc mừng bạn đã trở thành thành viên ",
    "goHome": "Quay về trang chủ"
  },
  "calendarScreen": {
    "today": "Hôm nay",
    "medicine": "Thuốc",
    "symptomHistory": "Nhật ký triệu chứng",
    "appointment": "Lịch hẹn",
    "updated": "Đã cập nhật",
    "notUpdated": "Chưa cập nhật",
    "times": "Lần",
    "onlineAppointment": "Tư vấn online",
    "offlineAppointment": "Tại phòng khám",
    "bed": "Giường",
    "bedInfo": "Thông tin giường",
    "giveQRtoTheNurse": "Vui lòng đưa mã QR này cho điều dưỡng",
    "emptyList": "Bạn không có lịch nào vào ngày đã chọn",
    "receivingTime": "Giờ nhận giường",
    "returnTime": "Giờ trả giường"
  },
  "createAppointment": {
    "noCr": "Không có phòng tư vấn",
    "offline": "Tại phòng khám",
    "online": "Tư vấn online",
    "selectWorkspace": "Chọn cơ sở y tế",
    "selectMethod": "Chọn hình thức",
    "selectTime": "Chọn thời gian",
    "noAvailableTimes": "Bác sĩ không có lịch trống trong ngày",
    "createAppointmentSuccessfully": "Tạo lịch hẹn thành công",
    "timeSlot": "Thời lượng",
    "minutes": "phút",
    "confirmAppointment": "Xác nhận lịch",
    "price": "Giá",
    "goBack": "Quay lại",
    "confirm": "Xác nhận",
    "noTimeslot": "Không có lịch trống vào ngày này",
    "selectDate": "Chọn ngày",
    "selectTimeRange": "Chọn khoảng thời gian",
    "free": "Hỗ trợ",
    "noWorkingTime": "Bác sĩ không có lịch vào ngày này",
    "hospitalNamePlaceholder": "Nhập tên bệnh viện",
    "noWorkspace": "Không có cơ sở y tế",
    "offlineAppointment": "Tại phòng khám",
    "onlineAppointment": "Online"
  },
  "CreateAppointmentChooseTimeScreen": {
    "timeFrames": "Các khung giờ ngày",
    "consultingRoom": "Phòng tư vấn:",
    "consultation": "Chọn hình thức tư vấn",
    "offlineAppointment": "Tại phòng khám",
    "onlineAppointment": "Online"
  },
  "CreateHealthProfileScreen": {
    "defMess": "Xin chào Bác sĩ, rất mong được kết nối với bác sĩ. Trân trọng cảm ơn!",
    "updateHealthInformation": "Cập nhật thông tin sức khỏe'",
    "createCareplanSuccessfully": "Tạo hồ sơ sức khỏe thành công",
    "updateCareplanSuccessfully": "Cập nhật hồ sơ sức khỏe thành công",
    "createHealthProfile": "Tạo hồ sơ sức khoẻ",
    "createHealthProfileFor": "Tạo hồ sơ sức khoẻ cho",
    "diagnose": "Chẩn đoán",
    "diagnosePlaceholder": "Nhập tên bệnh của bạn",
    "stage": "Diễn biến bệnh",
    "stagePlaceholder": "Bệnh đang ở giai đoạn nào",
    "currentStatus": "Tình trạng hiện tại",
    "currentStatusPlaceholder": "Tình trạng bệnh hiện tại ra sao",
    "treatment": "Điều trị",
    "treatmentPlaceholder": "Quá trình điều trị",
    "otherDisease": "Bệnh khác",
    "otherDiseasePlaceholder": "Vd: Tiểu đường, Viêm khớp",
    "contact": "Người liên hệ",
    "contactFullName": "Họ và Tên",
    "contactFullNamePlaceholder": "Nguyễn Văn A",
    "contactPhoneNumber": "Số điện thoại",
    "contactPhoneNumberPlaceholder": "Số điện thoại",
    "contactRelationship": "Mối quan hệ ( với người bệnh )",
    "contactRelationshipPlaceholder": "Vd: Vợ, chồng, con",
    "saveAndInviteDoctor": "Lưu và mời Bác sĩ",
    "inviteDoctor": "Mời bác sĩ chăm sóc",
    "doctorPlaceholder": "Viết lời nhắn để Bác sĩ tiếp nhận nhanh hơn",
    "joinedDoctor": "Bác sĩ đã được mời vào HSSK",
    "selectCareplan": "Chọn hồ sơ sức khoẻ",
    "YouHaveCreated": "Bạn đã tạo"
  },
  "DoctorDetailScreen": {
    "workPlace": "Nơi công tác",
    "jobTitle": "Chức vụ",
    "majors": "Lĩnh vực nổi bật",
    "introduction": "Giới thiệu",
    "workList": "Công việc",
    "educationList": "Học vấn",
    "experienceList": "Quá trình công tác"
  },
  "DocumentsScreen": {
    "uploadDocument": "Tải lên hình ảnh, PDF, Doc",
    "documentList": "Tài liệu",
    "imageList": "Hình ảnh",
    "addNewDocument": "Thêm mới",
    "documentType": "Định dạng file:",
    "types": "Hình ảnh, PDF, .doc, .docx, .xlsx",
    "uploadFile": "Tải lên tệp",
    "titleName": "Tên tài liệu",
    "titleNamePlaceholder": "Nhập tên tài liệu..."
  },
  "AnalysisList": {
    "uploadDocument": "Tải lên xét nghiệm",
    "supportFiles": "File hỗ trợ",
    "addNew": "Tải lên"
  },
  "EditProfileScreen": {
    "fullName": "Họ và tên",
    "fullNamePlaceHolder": "Nhập họ và tên của bạn",
    "dateOfBirth": "Ngày sinh",
    "dateOfBirthPlaceHolder": "Chọn ngày sinh",
    "selectGender": "Chọn giới tính",
    "identityNumber": "Số CMND/CCCD",
    "identityNumberPlaceholder": "Nhập chứng minh thư/ Căn cước công dân",
    "address": "Địa chỉ",
    "addressPlaceholder": "Ví dụ: Hà Nội",
    "job": "Nghề nghiệp",
    "jobPlaceholder": "Nhập nghề nghiệp của bạn",
    "saveProfile": "Lưu hồ sơ",
    "saveDeepLinkingProfile": "Lưu và mời bác sĩ",
    "pleaseEnterRequireField": "Vui lòng nhập các trường bắt buộc",
    "cannotSaveProfile": "Không thể lưu hồ sơ",
    "parent": "Mối quan hệ (với bạn)",
    "parentPlaceholder": "Ví dụ: Bố, Mẹ, Con",
    "phone": "Số điện thoại",
    "phonePlaceholder": "Nhập số điện thoại",
    "createAccountSuccessfully": "Tạo tài khoản thành công",
    "updateInformationSuccessfully": "Cập nhật thông tin thành công"
  },
  "errorScreen": {
    "title": "Something went wrong!",
    "friendlySubtitle": "This is the screen that your users will see in production when an error is thrown. You'll want to customize this message (located in `app/i18n/en.json`) and probably the layout as well (`app/screens/error`). If you want to remove this entirely, check `app/app.tsx` for the <ErrorBoundary> component.",
    "traceTitle": "Error from %{name} stack",
    "reset": "RESET APP"
  },
  "OutpatientRecords": {
    "Outpatient": "Sổ Khám",
    "notHave": "Bạn chưa có sổ khám bệnh nào",
    "detail": "Chi tiết sổ Khám",
    "empty": "Danh sách trống",
    "certificateExamination": "Phiếu khám",
    "prescription": "Đơn thuốc",
    "testForm": "Phiếu Xét nghiệm",
    "testResults": "Kết quả Xét nghiệm",
    "CLS": "Phiếu chỉ định Cận lâm sàng (CLS)",
    "CLSsheet": "Phiếu kết luận CLS",
    "CLSresults": "Phim / ảnh / video của kết quả CLS",
    "returnAppointmentLetter": "Giấy hẹn khám lại",
    "otherPapers": "Các giấy tờ khác",
    "emptyDoc": "Danh sách tài liệu trống",
    "outpatientRecords": "Sổ khám bệnh",
    "reason": "Lý do khám lần đầu:",
    "findDocuments": "Tìm tài liệu",
    "findReason": "Tìm lí do khám",
    "noName": "Không có tên",
    "docName": "Tên tài liệu",
    "consultationDate": "Ngày khám",
    "resultsDay": "Ngày trả:"
  },
  "HealthProfileScreen": {
    "vitalityIndex": "Chỉ số sinh hiệu",
    "treatmentInfo": "Thông tin điều trị",
    "medicalExaminationInfo": "Thông tin khám bệnh",
    "historyOfAllergies": "Tiền sử dị ứng",
    "healthStat": "Chỉ số sức khỏe",
    "askDoctor": "Hỏi bác sĩ",
    "callDoctor": "Gọi bác sĩ",
    "file": "File",
    "files": "File",
    "uploadFile": "Cần tải lên tài liệu",
    "overall": "Thông tin tổng quan",
    "lastUpdate": "Cập nhật cuối",
    "doctorList": "Danh sách bác sĩ",
    "doctor": "Bác sĩ",
    "doctors": "bác sĩ",
    "inviteDoctor": "Cần mời bác sĩ",
    "medicalImaging": "Chẩn đoán hình ảnh",
    "record": "Sổ khám bệnh",
    "prescription": "Đơn thuốc",
    "test": "Xét nghiệm",
    "report": "Báo cáo",
    "healthReport": "Nắm bắt tình trạng sức khỏe theo thời gian",
    "saveDocument": "Lưu trữ 50 năm",
    "recentActivities": "Hoạt động gần đây",
    "waitingConnection": "Đang chờ kết nối với Bệnh Viện",
    "connected": "Đã kết nối với Bệnh Viện",
    "requestDenie": "Yêu cầu bị từ chối",
    "OtherIndicators": "Các chỉ số khác",
    "updateVitalityIndex": "Cập nhật chỉ số sinh hiệu"
  },
  "HomeScreen": {
    "request": "Quyền truy cập",
    "requestPermission": "Thiết lập nâng cao quyền truy cập để thực hiện cuộc gọi với bác sĩ.",
    "monitorSymptom": "Theo dõi triệu chứng",
    "healthIndex": "Chỉ số sức khoẻ",
    "callDoctor": "Gọi bác sĩ",
    "updateMedicine": "Cập nhật thuốc",
    "doctorAdvice": "Lời dặn của bác sĩ",
    "upload": "Cập nhật tài liệu",
    "uploadDocument": "Tải lên thuốc, xét nghiệm, sổ khám",
    "uploadSymptom": "Cập nhật triệu chứng",
    "uploadMedicine": "Cập nhật dùng thuốc",
    "comunity": "Cộng đồng",
    "utility": "Tiện ích",
    "toDoList": "Lịch trình hôm nay",
    "medicalBook": "Sổ khám bệnh",
    "welcome": "Welcome",
    "hodoWelcome": "HODO Xin chào !",
    "prescription": "Đơn thuốc",
    "test": "Xét nghiệm",
    "explore": "Khám phá",
    "exploreHodo": "Khám phá HODO",
    "healthRecord": {
      "department": "Khoa: ",
      "diagnose": "Chẩn đoán: ",
      "VisitInfo": "Thông tin lượt khám",
      "gender": "Giới tính: ",
      "method": "Hình thức",
      "diseaseName": "Tên bệnh",
      "references": "Tài liệu tham khảo",
      "medicalBill": "Phiếu khám",
      "diagnoseYourImage": "Chuẩn đoán hình ảnh",
      "otherIndications": "Chỉ định khác",
      "molecularBiology": "Sinh học phân tử",
      "prescription": {
        "times/day": "Lần/ngày",
        "Amount/Time": "Lượng/Lần"
      },
      "diagnoseYourImages": {
        "resultsOfFiles": "Các tệp kết quả",
        "diagnosticResults": "Kết quả chẩn đoán",
        "conclude": "Kết luận"
      },
      "notFoundHealthRecord": "Không có dữ liệu sổ khám bệnh"
    }
  },
  "inviteCode": {
    "title": "Mã giới thiệu",
    "doctorCode": "Nhập mã giới thiệu của Bác sĩ",
    "doctorCodePlaceholder": "Nhập mã giới thiệu",
    "note": "Lưu ý: Mã code giới thiệu chỉ sử dụng duy nhất một lần cho một tài khoản. Do đó, mã code đã được bạn sử dụng trước đó sẽ không có hiệu lực.",
    "codeError": "Mã bạn vừa nhập có thể đã hết hạn hoặc không tồn tại, vui lòng thử lại.",
    "useCode": "Sử dụng mã",
    "congratulation": "Chúc mừng bạn đã trở thành thành viên HODO Gold nhờ sự hỗ trợ của BS.",
    "goldMember": "Chúc mừng bạn đã trở thành thành viên HODO Gold",
    "packageMember": "Gói Khuyến mại:",
    "expiredDate": "Ngày hết hạn:",
    "goHome": "Quay về trang chủ"
  },
  "MedicalBookScreen": {
    "address": "Địa điểm",
    "code": "Mã SKB",
    "reason": "Lý do khám bệnh",
    "createdAt": "Ngày tạo",
    "noData": "Không có dữ liệu",
    "progression": "Diễn biến",
    "diagnose": "Chẩn đoán",
    "prehistoric": "Kết luận",
    "noResult": "Chưa có kết quả khám",
    "result": "Kết quả xét nghiệm",
    "prescription": "Đơn thuốc",
    "document": "File và link kèm theo",
    "indicationName": "Tên chỉ định",
    "indicationTime": "Ngày chỉ định",
    "indicationDoctor": "Bác sĩ chỉ định",
    "indicationAddress": "Nơi thực hiện",
    "resultLinks": "Kết quả",
    "prescriptions": "Mô tả",
    "conclusions": "Kết luận",
    "consultationDate": "Ngày khám",
    "consultationList": "Danh sách Lần khám",
    "noConsultationData": "Không có dữ liệu phiếu khám"
  },
  "medicineScreen": {
    "medicine": "Thuốc",
    "askDoctor": "Hỏi bác sĩ",
    "newMedicine": "Bác sĩ thêm thuốc mới",
    "pressToSeeNewMedicine": "Bấm vào đây để xem danh sách thuốc bác sĩ đã thêm",
    "symptomPlaceHolder": "Sau khi dùng thuốc bạn thấy thế nào ?",
    "startToday": "Có bắt đầu sử dụng ngay hôm nay ?",
    "start": "Bắt đầu",
    "medicineInstruction": "Xem hướng dẫn sử dụng thuốc",
    "userManual": "Hướng dẫn sử dụng",
    "howToUseMedicine": "Hướng dẫn dùng thuốc",
    "medicineName": "Tên thuốc",
    "instruction": "Hướng dẫn",
    "sideEffect": "Tác dụng phụ",
    "dose": "Liều lượng",
    "eachTime": "Mỗi lần",
    "gapDay": "Uống cách ngày",
    "tablet": "viên",
    "time": "Lần",
    "startDate": "Ngày bắt đầu",
    "noMedicines": "Bạn chưa có thuốc cần uống",
    "useTime": "Sử dụng lần",
    "send": "Gửi",
    "updateSuccess": "Cập nhật thành công",
    "updatedDose": "Đã cập nhật số lần sử dụng thuốc",
    "errorUpdateDose": "Đã có lỗi xảy ra khi cập nhật số lần sử dụng thuốc, vui lòng thử lại sau!",
    "startMedicine": "Bắt đầu sử dụng thuốc",
    "medicineAdded": "Đơn thuốc đã được thêm vào lịch trình của bạn",
    "errorStartMedicine": "Đã có lỗi xảy ra khi bắt đầu sử dụng đơn thuốc của bạn, vui lòng thử lại sau!",
    "addSideEffect": "Cảm nhận sau khi sử dụng thuốc",
    "noInstruction": "Không có hướng dẫn sử dụng thuốc",
    "addReminder": "Thêm nhắc lịch vào Điện thoại",
    "MedicineRemindModal": {
      "content": "Content",
      "defaultContent": "Hãy uống thuốc đúng giờ",
      "enterReminder": "Vui lòng nhập nội dung nhắc nhở",
      "endTimeAfterStartTime": "Thời gian kết thúc phải sau thời gian bắt đầu",
      "addSuccessfully": "Thêm thành công",
      "addFailure": "Thêm thất bại",
      "reminderTime": "Thời gian nhắc lịch",
      "contentPlaceHolder": "Nhập nội dung nhắc nhở",
      "reminders": "Lượt nhắc",
      "create": "Tạo mới",
      "startDate": "Chọn ngày bắt đầu",
      "endDate": "Chọn ngày kết thúc",
      "selectTime": "Chọn thời gian"
    }
  },
  "MemberBenefits": {
    "transactionError": "Hệ thống thanh toán đang gặp vấn đề, vui lòng thử lại sau",
    "restoreError": "Restore thất bại!",
    "saveError": "Không thể lưu thông tin thanh toán",
    "error": "Có lỗi xảy ra",
    "packageInformation": "Thông tin",
    "packageName": "Gói sử dụng",
    "packageInfo": "Ưu đãi khác",
    "packageEndDate": "Ngày hết hạn",
    "forever": "Vĩnh viễn",
    "restore": "Gia hạn tài khoản"
  },
  "message": {
    "noMessage": "Bạn chưa có tin nhắn nào",
    "addNewMessage": "Soạn tin nhắn",
    "sendTo": "Gửi tới",
    "sendCommentSuccessfully": "Gửi tin nhắn thành công",
    "discussionTopic": "Chủ đề trao đổi",
    "enterMessageToPatient": "Nhập nội dung cần trao đổi...",
    "noName": "Không có tên"
  },
  "NotificationsScreen": {
    "all": "Tất cả",
    "careplan": "Hồ sơ sức khỏe",
    "appoimentList": "Lịch hẹn",
    "topic": "Tin nhắn",
    "other": "Khác"
  },
  "otpScreen": {
    "authenticatePhoneNumber": "Xác thực số điện thoại",
    "description": "Nhập mã OTP được gửi đến điện thoại bạn",
    "resendCode": "Gửi lại mã OTP",
    "haveNotReceiveCode": "Bạn chưa nhận được mã xác thực?",
    "authenticate": "Xác thực",
    "incorrectCode": "Mã không chính xác!",
    "second": "giây"
  },
  "Pacs": {
    "benifit1": "Tất cả các định dạng CT, MRI, PET/CT",
    "benifit2": "Thuận tiện chia sẻ với nhiều Bác sĩ",
    "benifit3": "Lưu trữ trọn đời",
    "hodoPortal": "Truy cập HODO Patient Portal để upload các tài liệu chẩn đoán hình ảnh ngay",
    "uploadFile": "Upload file Chẩn đoán hình ảnh",
    "isProcessing": "Đang xử lý",
    "noProcess": "Không xử lý được",
    "member": "Hãy trở thành Thành viên",
    "hodoMember": "Bạn cần trở thành Thành viên của HODO để xem và chia sẻ tài liệu Chẩn đoán hình ảnh. Bạn vẫn muốn tiếp tục?"
  },
  "phoneNumberScreen": {
    "inputPhoneNumber": "Nhập số điện thoại",
    "description": "Số điện thoại của bạn được sử dụng để đăng nhập/ đăng ký tài khoản",
    "phoneNumber": "Số điện thoại",
    "acceptTermsConditionPartOne": "Bằng việc sử dụng HODO, bạn đồng ý với",
    "acceptTermsConditionPartTwo": " của HODO",
    "cannotSendSMS": "Không thể gửi tin nhắn. Vui lòng thử lại sau.",
    "termsOfService": "Điều khoản dịch vụ",
    "privacyPolicy": "Chính sách quyền riêng tư",
    "enterDevMode": "App sẽ sử dụng host server dev cho toàn bộ APIs",
    "pleaseInputPhoneNumber": "Vui lòng nhập số điện thoại"
  },
  "RedeemScreen": {
    "perMonth": "/Tháng",
    "slogan": "An tâm sống khỏe",
    "redeem": "Nhận ngay",
    "congratulation": "Chúc mừng bạn đã trở thành thành viên ",
    "goHome": "Quay về trang chủ"
  },
  "reportScreen": {
    "noData": "Không tìm thấy dữ liệu trong khoảng thời gian đã chọn",
    "noInfo": "Không có thông tin",
    "noName": "Không có tên",
    "noSymptoms": "Không có dấu hiệu bất thường nào",
    "chart": "Biểu đồ",
    "report": "Báo cáo",
    "symptoms": "Dấu hiệu cảnh báo",
    "medicine": "Thuốc",
    "times": "Lần",
    "test": "Xét nghiệm",
    "pulse": "Mạch",
    "temperature": "Thân nhiệt",
    "bloodPressure": "Huyết áp",
    "spo2": "SPO2",
    "breath": "Nhịp thở",
    "weight": "Cân nặng",
    "height": "Chiều cao",
    "pulseUnit": "Lần / phút",
    "temperatureUnit": "Độ C",
    "bloodPressureUnit": "mmHg",
    "spo2Unit": "%",
    "breathUnit": "Lần / phút",
    "weightUnit": "Kg",
    "heightUnit": "Cm",
    "index": "Chỉ số",
    "result": "Kết quả",
    "unit": "Đơn vị",
    "normal": "Bình thường",
    "lastUpdate": "Cập nhật cuối",
    "noTest": "Không có thông tin xét nghiệm nào"
  },
  "ScanScreen": {
    "activeHealth": "Sức khoẻ Chủ động"
  },
  "ScanToInvite": {
    "notePlaceholder": "Viết lời nhắn để Bác sĩ tiếp nhận nhanh hơn",
    "joinedDoctor": "Bác sĩ đã được mời vào HSSK",
    "selectCareplan": "Chọn hồ sơ sức khoẻ"
  },
  "SelectDoctorScreen": {
    "type1": "Dinh dưỡng",
    "type2": "Ung thư vòm họng",
    "type3": "Ung thư cổ tử cung",
    "sentInvitation": "Đã gửi lời mời đến bác sĩ",
    "pleaseWait": ", vui lòng chờ xác nhận",
    "cancelConnection": "Đã hủy kết nối với bác sĩ ",
    "youWant": "Bạn muốn bác sĩ",
    "noJoin": "không tham gia hồ sơ sức khỏe nữa?",
    "goBack": "Quay lại",
    "doctorNamePlaceHolder": "Nhập tên bác sĩ"
  },
  "SplashScreen": {
    "alertError": "Có lỗi xảy ra",
    "loginAgain": "Xin mời đăng nhập lại",
    "betterEverday": "Tốt hơn mỗi ngày!"
  },
  "symptomScreen": {
    "symptom": "Triệu chứng",
    "symptomHistoryUpdate": "Lịch sử cập nhật triệu chứng",
    "updateSymptomRequiredByDoctor": "Theo danh sách Bác sĩ yêu cầu",
    "updateSymptom": "Cập nhật triệu chứng",
    "addNewSymptom": "Triệu chứng khác",
    "updateStats": "Cập nhật chỉ số",
    "updateHealthStats": "Cập nhật chỉ số sức khỏe",
    "historyUpdate": "Lịch sử cập nhật",
    "symptomPlaceholder": "Ví dụ: Buồn nôn",
    "startWithYourSymptom": "Hãy bắt đầu với triệu chứng bạn khó chịu nhất.",
    "symptomWelcomeText": "Bạn muốn ghi nhận triệu chứng gì ?",
    "stat": "Chỉ số",
    "height": "Chiều cao",
    "weight": "Cân nặng",
    "bodyTemperature": "Thân nhiệt",
    "bloodPressure": "Huyết áp",
    "breathing": "Nhịp thở",
    "heartRate": "Mạch",
    "spo2": "SPO2",
    "bloodSugar": "Đường huyết",
    "heightUnit": "Cm",
    "weightUnit": "Kg",
    "bodyTemperatureUnit": "Độ C",
    "bloodPressureUnit": "mmHg",
    "breathingUnit": "Lần/phút",
    "heartRateUnit": "Lần/phút",
    "spo2Unit": "%",
    "bloodSugarUnit": "mmol/L",
    "statPlaceholder": "Vui lòng nhập chỉ số",
    "youHaveSymptomsToUpdate": "Bác sĩ yêu cầu theo dõi {{numberOfSymptoms}} triệu chứng, bạn muốn cập nhật triệu chứng:",
    "wannaAddNewSymptoms": "Bạn có muốn cập nhật thêm triệu chứng mới nào nữa không ?",
    "completedSymptoms": "Bạn đã hoàn thành {{completedSymptoms}}/{{totalSymptoms}} triệu chứng cần cập nhật. ",
    "finishSymptoms": "Chúc mừng, Triệu chứng của bạn đã được cập nhật. Các triệu chứng này sẽ giúp bác sĩ nắm được tình hình sức khỏe của bạn.",
    "updateResult": "Kết quả cập nhật",
    "otherSymptoms": "Triệu chứng khác",
    "updateAt": "Cập nhật lúc {{time}}",
    "noAndSeeUpdateResult": "Không, xem kết quả cập nhật",
    "backToSymptom": "Quay lại trang triệu chứng"
  },
  "SymptomAddNewScreen": {
    "symptomDescription": "Bạn có thể mô tả rõ hơn không?",
    "symptomDescriptionSub": "Điều này rất quan trọng với bác sĩ để theo dõi sức khỏe bạn",
    "noSymptomName": "Vui lòng nhập tên triệu chứng",
    "symptomPlaceHolder": "Ví dụ: Buồn nôn"
  },
  "SymptomHealthStatsScreen": {
    "updateStatsSuccessfully": "Cập nhật chỉ số thành công"
  },
  "SymptomQuestionScreen": {
    "never": "Không gặp",
    "addSymptomSuccessfully": "Thêm triệu chứng thành công",
    "updateSymptomSuccessfully": "Cập nhật triệu chứng thành công",
    "symptomPlaceHolder": "Nhập mô tả của bạn..."
  },
  "SymptomUpdateScreen": {
    "doYouSee": "Hôm nay, bạn có thấy \"%{symptom_name}\" không ?",
    "status1": "Không gặp",
    "status2": "Thi thoảng",
    "status3": "Nhiều",
    "status4": "Rất nhiều",
    "doYouDescribe": "Bạn có thể mô tả rõ hơn không?",
    "descriptionSub": "Điều này rất quan trọng với bác sĩ để theo dõi sức khỏe bạn"
  },
  "AppointmentDetail": {
    "consultingRoom": "Phòng tư vấn",
    "appointmentWith": "Đặt lịch hẹn với:",
    "apptNote": "Ghi chú:",
    "noApptNote": "Không có ghi chú",
    "payInvoice": "Thanh toán",
    "joinVideoCall": "Tham gia",
    "invoice": "Hóa đơn",
    "declineAppt": "Từ chối",
    "approveAppt": "Chấp nhận",
    "offlineAppointment": "Hẹn đến phòng khám",
    "onlineAppointment": "Tư vấn online",
    "price": "Đơn giá:",
    "result": "Kết quả khám bệnh",
    "resultFile": "Kết quả khám ",
    "instruction": "Hướng dẫn",
    "apptTime": "Lịch hẹn của bạn diễn ra vào:",
    "apptContent": "Bác sĩ sẽ thực hiện cuộc gọi đến bạn vào thời gian trên. Vui lòng mở app và bắt máy để thực hiện cuộc gọi với bác sĩ.",
    "goBack": "Quay lại chi tiết lịch hẹn",
    "lastUpdate": "Sửa đổi lần cuối",
    "sendCommentSuccessfully": "Gửi bình luận thành công",
    "sentMedias": "Ảnh, tài liệu đã gửi"
  },
  "tutorialScreen": {
    "connectDoctor": "Kết nối với Bác sĩ để an tâm sức khoẻ",
    "startNow": "Hãy bắt đầu ngay",
    "createAccount": "Tạo tài khoản HODO",
    "createAnotherHealthProfile": "Tạo tài khoản tài khoản cho người thân",
    "createProfile": "Tạo Hồ Sơ Sức Khoẻ",
    "inviteDoctor": "Mời Bác sĩ tham gia",
    "start": "Bắt đầu"
  },
  "TwilioVideoCallScreen": {
    "micro": "Need permission to access microphone",
    "microPermission": "To run this demo we need permission to access your microphone",
    "camera": "Need permission to access camera",
    "cameraPermission": "To run this demo we need permission to access your camera",
    "pleaseWait": "Vui lòng chờ thêm ít phút, Bác sĩ sẽ tham gia phiên tư vấn sớm"
  },
  "TwilioVoiceCallScreen": {
    "isBusy": "Người nhận hiện đang bận",
    "isRinging": "Đang đổ chuông",
    "isNotConnected": "Người nhận không liên lạc được",
    "isEnded": "Kết thúc cuộc gọi",
    "isReconnecting": "Đang thử kết nối lại",
    "isReconnected": "Kết nối lại thành công",
    "isConnecting": "Đang kết nối...",
    "reTry": "Không thể thực hiện cuộc gọi, vui lòng thử lại.",
    "endCall": "Kết thúc",
    "micro": "Micro",
    "speaker": "Loa"
  },
  "welcomeScreen": {
    "hello": "HODO XIN CHÀO !",
    "iCanHelpYou": "Tôi có thể giúp bạn",
    "createHealthProfile": "Tạo hồ sơ sức khoẻ, kết nối với Bác sĩ",
    "createAnotherHealthProfile": "Tạo hồ sơ sức khoẻ cho Người thân",
    "youHaveHealthProfile": "Bạn có Hồ Sơ Sức Khoẻ ở ",
    "askOtherPatients": "Hỏi kinh nghiệm từ bệnh nhân khác",
    "iWantToDiscover": "Tôi muốn tự khám phá",
    "youHave": "Bạn có Hồ Sơ Sức Khỏe",
    "at": " ở",
    "approve": "Tiếp nhận ngay"
  },
  "utils": {
    "remind": "Nhắc nhở",
    "onlyType": "Chỉ hỗ trợ định dạng file",
    "alertMicro": "HODO cần quyền truy cập Micro để tham gia cuộc gọi.",
    "openSetting": "Mở cài đặt",
    "microNotReady": "Micro của bạn đang không sẵn sàng",
    "alertMicroAndCamera": "HODO cần quyền truy cập Máy ảnh và Micro để tham gia cuộc gọi.",
    "camera": "Máy ảnh",
    "and": " và ",
    "micro": "Micro",
    "notReady": " của bạn đang không sẵn sàng",
    "free": "Hỗ trợ",
    "test": "Xét nghiệm",
    "hodoPro": "HODO Pro",
    "alertUpdate": "Thông báo cập nhật",
    "pleaseUpdate": "Vui lòng cập nhật phiên bản mới nhất trên chợ ứng dụng",
    "alertCalendar": "Bạn cần phải cấp quyền cho HODO Pro truy cập vào lịch của bạn",
    "goBack": "Quay lại",
    "update": "Cập nhật"
  },
  "circle": {
    "placeholder": "Nhập tên Circle",
    "empty": "Tham gia Circle để kết nối với\n Bác sĩ và Cơ sở y tế",
    "searchEmpty": "Không tìm thấy Circle nào có tên như vậy.  Vui lòng thử lại.",
    "joinCircle": "Tham gia Circle",
    "member": "thành viên",
    "Member": "Thành viên",
    "doctor": "Bác sĩ tư vấn: ",
    "invitation": "Lời mời",
    "waiting": "Đã gửi",
    "accept": "Tham gia",
    "reject": "Từ chối",
    "restore": "Thu hồi",
    "live": "Trực tiếp",
    "circleCode": "Mã Circle ",
    "circleCodePlaceholder": "Nhập mã Circle hoặc quét mã QR",
    "seed": "Seed",
    "codeEmpty": "Không tìm thấy Circle nào, vui lòng kiểm tra mã Circle được nhập vào. ",
    "enterCode": "Vui lòng liên hệ bác sĩ tư vấn để có mã Circle hoặc mã QR của Circle.",
    "sentRequest": "Đã gửi yêu cầu tham gia đến Circle",
    "sentRequested": "Bạn đã gửi yêu cầu tham gia đến Circle",
    "circleJoined": "Bạn đã tham gia Circle này rồi",
    "requestToJoin": "Yêu cầu tham gia",
    "scanToJoin": "Quét mã QR để tham gia Circle",
    "circleInformation": "Thông tin Circle",
    "leaveCircle": "Bạn muốn rời khỏi Circle ",
    "description": "Mô tả",
    "noDescription": "Không có mô tả",
    "joinLive": "Xem trực tiếp",
    "resources": "Tài nguyên",
    "resourcesPlaceholder": "Nhập tên tài nguyên",
    "resourcesEmpty": "Danh sách tài nguyên trống",
    "medicalExperts": "Chuyên gia y tế",
    "contactSeeder": "Không vào được phiên trực tuyến, vui lòng liên hệ Seeder.",
    "leftCircle": "Đã rời khỏi Circle",
    "successLeft": "Rời khỏi circle thành công",
    "leaveFail": "Rời khỏi circle không thành công",
    "liveSchedule": "Lịch trình trực tiếp",
    "noLiveSchedule": "Chưa có lịch phát trực tiếp trong ngày"
  },
  "HealthProfileConnection": {
    "title": "Kết nối bệnh viện",
    "patientCode": "Mã bệnh nhân",
    "patientCodePlaceholder": "Nhập mã bệnh nhân",
    "medical": "Mã bệnh án",
    "medicalPlaceholder": "Nhập mã bệnh án",
    "healthInsurance": "Ảnh mặt trước thẻ bảo hiểm y tế",
    "identityCardFront": "Ảnh mặt trước căn cước công dân, chứng minh thư nhân dân",
    "identityCardBack": "Ảnh mặt sau căn cước công dân, chứng minh thư nhân dân",
    "uploadImage": "Tải lên ảnh",
    "send": "Gửi yêu cầu kết nối",
    "pidNull": "Không tìm thấy mã bệnh nhân",
    "haveConnect": "Đã tồn tại yêu cầu kết nối",
    "sentSuccessfully": "Đã gửi yêu cầu thành công",
    "status": "Trạng thái",
    "roomBedInformation": "Nhận thông tin sắp xếp phòng & giường ",
    "reassessmentInformation": "Nhận lịch khám lại từ bác sĩ"
  },
  "ecommerce": {
    "productEmpty": "Không tìm thấy thông tin sản phẩm",
    "serviceEmpty": "Không tìm thấy thông tin dịch vụ",
    "productRequest": "Thêm dịch vụ",
    "serviceRequest": "Yêu cầu dịch vụ",
    "search": "Tìm kiếm",
    "brand": "Thương hiệu",
    "origin": "Nguồn gốc: ",
    "manufacturer": "Nhà phân phối: ",
    "supplier": "Nhà cung cấp:",
    "information": "Thông tin sản phẩm",
    "requiredDocuments": "Tài liệu bắt buộc",
    "buyNow": "Đặt dịch vụ ngay",
    "attachmentRequest": "Dịch vụ yêu cầu tài liệu đính kèm",
    "requireSubmit": "Dịch vụ này yêu cầu bạn nộp tài liệu kèm theo. Bạn vẫn muốn tiếp tục?",
    "addToCart": "Bạn đã thêm vào dịch vụ",
    "cart": {
      "cart": "Yêu cầu dịch vụ",
      "cartEmpty": "Không có dịch vụ nào",
      "removeAll": "Thao tác này sẽ xóa tất cả dịch vụ",
      "totalAmount": "Tổng tiền hàng: ",
      "otherCost": "Chi phí khác: ",
      "intoMoney": "Thành tiền: ",
      "discountVoucher": "Voucher ưu đãi: ",
      "pay": "Thanh toán: ",
      "paymentConfirmation": "Xác nhận thanh toán",
      "quantity": "Số lượng: ",
      "downloadTemplate": "Tải xuống file mẫu",
      "selectFile": "Chọn tệp",
      "fullName": "Họ và tên",
      "fullNamePlaceholder": "Nhập họ và tên",
      "phone": "Số điện thoại",
      "phonePlaceholder": "Nhập số điện thoại",
      "address": "Tỉnh, thành phố, quận/ huyện",
      "addressPlaceholder": "Nhập Tỉnh, thành phố, quận/ huyện",
      "specificAddress": "Địa chỉ cụ thể",
      "specificAddressPlaceholder": "Nhập địa chỉ cụ thể",
      "note": "Ghi chú",
      "notePlaceholder": "Nhập ghi chú",
      "confirmInformation": "Xác nhận thông tin yêu cầu dịch vụ",
      "requesterInformation": "Thông tin người yêu cầu dịch vụ",
      "requester": "Người yêu cầu dịch vụ",
      "useInformation": "Sử dụng thông tin này là người nhận hàng",
      "receiver": "Người nhận hàng",
      "promo": "Ưu đãi",
      "promoCode": "Mã ưu đãi: XJMGOK",
      "apply": "Áp dụng",
      "codeNotExist": "Mã ưu đãi không tồn tại/ không áp dụng cho đối tác hiện tại.",
      "codeUsed": "Mã ưu đãi đã được sử dụng. Vui lòng kiểm tra lại.",
      "codeExpired": "Mã ưu đãi hết hiệu lực sử dụng. Vui lòng kiểm tra lại.",
      "codeSuccess": "Áp dụng mã giảm giá thành công",
      "payments": "Hình thức thanh toán",
      "directPayment": "Thanh toán trực tiếp",
      "useCard": "Thanh toán online",
      "order": "Đặt dịch vụ ngay",
      "notBlank": "Các tài liệu đính kèm bắt buộc không được để trống",
      "notBlankFields": "Vui lòng nhập các trường thông tin bắt buộc",
      "phoneLength": "Độ dài số điện thoại phải từ 10 tới 12 số",
      "phoneFormat": "Số điện thoại không đúng định dạng",
      "shareInformation": "YÊU CẦU ĐỒNG THUẬN TỪ KHÁCH HÀNG",
      "byAgree": "Khách hàng đồng ý chia sẻ thông tin chỉ định y khoa. Cụ thể là:\nKhách hàng chấp thuận cho phép Nhân Viên Y tế, Cơ Sở Y Tế, Cơ Sở Cung Cấp Dịch Vụ Y Tế và Nền Tảng Công Nghệ Thông Tin chia sẻ dữ liệu. Cụ thể là:\n- Dữ liệu hành chính (bao gồm thông tin cá nhân)\n- Dữ liệu lâm sàng kèm theo\n- Dữ liệu KH đính kèm (nếu có)",
      "byAgreeNote": "\nLưu ý: Dữ liệu được chia sẻ hoàn toàn nhằm mục đích đảm bảo chất lượng Dịch Vụ Xét Nghiệm, đảm bảo an toàn Khách hàng, Nhân Viên Y Tế, và các Đơn Vị Cung Cấp Dịch Vụ.",
      "orderSuccess": "Bạn đã đặt dịch vụ thành công"
    },
    "order": {
      "order": "Yêu cầu xét nghiệm",
      "orderList": "Yêu cầu xét nghiệm",
      "orderDetail": "Chi tiết",
      "waiting": "Đang chờ",
      "completed": "Đã hoàn thành",
      "canceled": "Đã hủy",
      "all": "Tất cả",
      "cancelOrder": "Hủy yêu cầu",
      "warning": "Cảnh báo",
      "cancelOrderQuest": "Bạn chắc chắn muốn hủy yêu cầu xét nghiệm?",
      "orderCanceled": "Đã hủy yêu cầu xét nghiệm",
      "unsuccessCancel": "Hủy yêu cầu xét nghiệm không thành công",
      "orderStatus": "Trạng thái yêu cầu xét nghiệm:",
      "status1": "Tiếp nhận",
      "status2": "Nhà cung cấp đã tiếp nhận",
      "status3": "Hoàn thành",
      "status4": "Đã hủy",
      "totalPayment": "Tổng thanh toán: "
    }
  },
  "testResults": {
    "homeTitle": "Bạn có (%{total}) kết quả xét nghiệm mới!",
    "viewResults": "Xem kết quả",
    "testResults": "Kết quả Xét nghiệm",
    "dateReceivingResults": "Ngày nhận kết quả:",
    "saveToHP": "Lưu vào hồ sơ sức khoẻ",
    "saveTitle": "Lưu kết quả xét nghiệm",
    "saveSubtitle": "Lưu kết quả xét nghiệm %{title} vào Hồ sơ sức khoẻ có sẵn hoặc tạo Hồ sơ sức khoẻ mới",
    "createHP": "Tạo hồ sơ sức khoẻ mới",
    "saveFailed": "Lưu kết quả xét nghiệm không thành công",
    "saveSuccess": "Lưu kết quả xét nghiệm thành công"
  },
  "homeEvip": {
    "service": "Dịch vụ",
    "medicalServices": "Dịch vụ y tế",
    "aviationService": "Phục vụ hàng không",
    "golf": "Golf & Phụ kiện",
    "hotel": "Khách sạn & Resort",
    "education": "Giáo dục",
    "restaurant": "Nhà hàng",
    "wine": "Rượu vang",
    "brandy": "Rượu mạnh",
    "cigar": "Cigar",
    "fashion": "Thời trang",
    "beautySalon": "Thẩm mỹ viện",
    "cosmetics": "Mỹ phẩm",
    "functionalFoods": "Thực phẩm chức năng",
    "entertainment": "Giải trí",
    "hello": "Xin chào",
    "healthInfo": {
      "title": "Thông tin sức khỏe",
      "updateHealth": "Cập nhật\ntriệu chứng",
      "paramHeal": "Chỉ số\nsưc khỏe",
      "bookHeal": "Sổ\nkhám bệnh"
    },
    "doctorTeam": {
      "title": "Đội ngũ bác sĩ",
      "SeniorSynchronousAdvisor": "Hội đồng cố vấn cấp cao",
      "notDoctors": "Không có bác sĩ nào",
      "interaction": "Tương tác với bác sĩ riêng của bạn"
    }
  },
  "homeHungVuong": {
    "doctorsTeam": "Đội ngũ bác sĩ",
    "interaction": "Tương tác với bác sĩ",
    "message": "Nhắn tin với bác sĩ",
    "healthProfile": "Hồ sơ sức khỏe",
    "ecommerce": "H-Mart",
    "welcomeTo": "Chào mừng bạn đến với cổng thông tin bệnh nhân - Bệnh Viện Đa Khoa Hùng Vương",
    "receivedPoints": "Bạn đã được nhận %{point} điểm vào H-Credit, nhận điểm miễn phí ngay!",
    "getPointsNow": "Nhận điểm ngay"
  },
  "exploreHodo": {
    "launching": "SẮP RA MẮT",
    "stayTuned": "Chúng tôi sẽ trở lại ngay!",
    "goHome": "TRANG CHỦ"
  },
  "Market": {
    "market": "H-Mart",
    "category": "Danh mục",
    "point": "điểm",
    "productItm": "Sản phẩm",
    "serviceItm": "Dịch vụ",
    "productGroups": {
      "promotionalProducts": "Sản phẩm khuyến mại",
      "bestSelling": "Sản phẩm bán chạy",
      "suggestion": "Gợi ý cho bạn",
      "watched": "Bạn vừa xem"
    },
    "seeDetail": "Xem chi tiết",
    "search": {
      "search": "Tìm kiếm",
      "filter": "Bộ lọc",
      "applied": "đã áp dụng",
      "all": "Tất cả",
      "type": "Loại",
      "manufacture": "Nhà sản xuất",
      "manufacturePlaceholder": "Tìm kiếm nhà sản xuất",
      "origin": "Quốc gia",
      "originPlaceholder": "Tìm kiếm quốc gia",
      "brand": "Thương hiệu",
      "brandPlaceholder": "Tìm kiếm thương hiệu",
      "priceRange": "Khoảng giá",
      "minimum": "Tối thiểu",
      "maximum": "Tối đa",
      "collapse": "Thu gọn",
      "showMore": "Hiển thị thêm",
      "noResultFound": "Không tìm thấy kết quả nào",
      "noData": "Không có dữ liệu",
      "reset": "Thiết lập lại",
      "apply": "Áp dụng",
      "searchPlaceholder": "Nhập tên sản phẩm, dịch vụ",
      "history": "Lịch sử tìm kiếm"
    },
    "productFilter": {
      "found": "Tìm thấy: ",
      "product": " sản phẩm",
      "service": " dịch vụ",
      "sorted": "Sắp xếp theo",
      "ascending": "Giá tăng dần",
      "descending": "Giá giảm dần"
    },
    "product": {
      "image": "Hình",
      "providedBy": "Cung cấp bởi ",
      "information": "Thông tin sản phẩm",
      "informationServices": "Thông tin dịch vụ",
      "category": "Danh mục",
      "dosageForms": "Dạng bào chế",
      "packing": "Quy cách đóng gói",
      "ingredient": "Thành phần",
      "point": "Chỉ định",
      "contraindicated": "Chống chỉ định",
      "trademark": "Thương hiệu",
      "manufacturer": "Nhà sản xuất",
      "manufacturingCountry": "Nước sản xuất",
      "unit": "Đơn vị",
      "implementingAgencies": "Đơn vị thực hiện",
      "serviceCode": "Mã dịch vụ",
      "description": "Mô tả",
      "serviceProcess": "Quy trình vận hành dịch vụ",
      "transferDocuments": "Tài liệu chuyển giao bao gồm",
      "buy": "Chọn mua",
      "serviceRequest": "Yêu cầu đặt dịch vụ",
      "selectQuantityUnit": "Chọn số lượng, đơn vị",
      "inStock": "Còn hàng",
      "outStock": "Hết hàng",
      "quantity": "Số lượng",
      "provisional": "Tạm tính",
      "addToCart": "Thêm vào giỏ",
      "buyNow": "Mua ngay",
      "addSuccessfully": "Thêm vào giỏ thành công",
      "removeProducts": "Giỏ hàng đã đạt giới hạn, vui lòng xóa bớt sản phẩm trong giỏ hàng"
    },
    "cart": {
      "cart": "Giỏ hàng",
      "chooseProduct": "Vui lòng chọn sản phẩm",
      "selectAll": "Chọn tất cả (%{cartlength})",
      "discountCode": "Chọn hoặc nhập mã giảm giá",
      "total": "Tổng tiền",
      "provisional": "Tạm tính",
      "purchase": "Mua hàng",
      "removeProduct": "Bạn có muốn xóa sản phẩm khỏi giỏ hàng?"
    },
    "voucher": {
      "select": "Chọn mã giảm giá",
      "enter": "Nhập mã giảm giá. Ví dụ: NEWUSER2024",
      "apply": "Áp dụng"
    },
    "payment": {
      "paymentDelivery": "Thanh toán khi nhận hàng",
      "pleaseSelectDelivery": "Vui lòng chọn thông tin nhận hàng!",
      "order": "Đặt hàng",
      "selectOrderer": "Chọn thông tin người đặt",
      "orderForMyself": "Tôi đặt sản phẩm, dịch vụ cho bản thân",
      "selectDelivery": "Chọn thông tin người thụ hưởng",
      "requiredDocuments": "Tài liệu bắt buộc ",
      "downloadTemplate": "Tải xuống mẫu",
      "uploadFiles": "Tải tệp lên",
      "document": "Tài liệu",
      "provideRequiredDocuments": "Vui lòng cung cấp đầy đủ các tài liệu bắt buộc",
      "paymentDetails": "Chi tiết thanh toán",
      "paymentMode": "Hình thức thanh toán",
      "paymentModeOnline": "Thanh toán trực tuyến",
      "paymentModeCash": "Thanh toán khi nhận hàng",
      "choosePaymentMethod": "Chọn hình thức thanh toán",
      "apply": "Áp dụng",
      "totalAmount": "Tổng tiền",
      "discountVouchers": "Giảm giá voucher",
      "usePoints": "Sử dụng điểm",
      "savings": "Tiết kiệm được",
      "otherCost": "Chi phí khác",
      "totalPayment": "Tổng thanh toán",
      "credit": "HODO Credit",
      "pointCanUse": "Sử dụng %{pointCanUse} điểm",
      "pointNotEnough": "Điểm HODO Credit không đủ",
      "methods": "Phương thức thanh toán",
      "purchase": "Mua hàng",
      "paymentFailed": "Thanh toán không thành công",
      "paymentSuccess": "Thanh toán thành công",
      "money": "Số tiền:",
      "time": "Thời gian:",
      "note": "Ghi chú:",
      "viewOrderList": "Xem danh sách đơn hàng"
    },
    "confirm": {
      "requestConsent": "YÊU CẦU ĐỒNG THUẬN TỪ KHÁCH HÀNG",
      "content": "Khách hàng đồng ý chia sẻ thông tin chỉ định y khoa. Cụ thể là:\nKhách hàng chấp thuận cho phép Nhân Viên Y Tế, Cơ Sở Y Tế, Cơ Sở Cung Cấp Dịch Vụ Y Tế và Nền Tảng Công Nghệ Thông Tin chia sẻ dữ liệu. Cụ thể là:\n • Dữ liệu hành chính (bao gồm thông tin cá nhân)\n • Dữ liệu lâm sàng kèm theo\n • Dữ liệu khách hàng đính kèm (nếu có)",
      "note": "Lưu ý: Dữ liệu được chia sẻ hoàn toàn nhằm mục đích đảm bảo chất lượng Dịch Vụ Xét Nghiệm, đảm bảo an toàn Khách hàng, Nhân Viên Y Tế, và các Đơn Vị Cung Cấp Dịch Vụ.",
      "acceptance": "Chấp thuận"
    },
    "account": {
      "address": "Địa chỉ nhận hàng",
      "security": "Quy định bảo mật",
      "help": "Trợ giúp"
    },
    "address": {
      "default": "Mặc định",
      "editSuccessful": "Sửa địa chỉ thành công",
      "deletedSuccessfully": "Xóa địa chỉ thành công",
      "deleteFailed": "Xóa địa chỉ thất bại",
      "wantDelete": "Bạn có muốn xóa địa chỉ này?",
      "change": "Đổi địa chỉ",
      "setDefaultAddress": "Đặt làm địa chỉ mặc định",
      "phonePlaceholder": "Nhập số điện thoại",
      "phoneErr": "Độ dài số điện thoại phải từ 10 tới 12 số",
      "city": "Tỉnh, thành phố, quận/huyện",
      "cityPlaceholder": "Nhập tên tỉnh, thành phố, quận/huyện",
      "specific": "Địa chỉ cụ thể",
      "specificPlaceholder": "Nhập địa chỉ nhận hàng",
      "emailPlaceholder": "Nhập email người nhận",
      "fillAll": "Vui lòng nhập đầy đủ các trường thông tin bắt buộc",
      "new": "Thêm địa chỉ mới",
      "addSuccessfully": "Thêm địa chỉ thành công"
    },
    "order": {
      "order": "Đơn hàng",
      "list": "Danh sách đơn hàng",
      "receive": "Tiếp nhận",
      "processing": "Đang xử lý",
      "complete": "Hoàn thành",
      "returnResults": "Trả kết quả",
      "cancel": "Hủy",
      "orderTime": "Ngày đặt:",
      "have": "Có",
      "haveOrder": "đơn hàng",
      "selectEntryDate": "Chọn ngày bắt đầu",
      "selectDateOut": "Chọn ngày kết thúc",
      "code": "Mã đơn hàng",
      "unpaid": "Chưa thanh toán",
      "paid": "Đã thanh toán",
      "cancelSuccessfully": "Hủy đơn hàng thành công",
      "cancelFailed": "Hủy đơn hàng thất bại",
      "detail": "Chi tiết đơn hàng",
      "hasBeenCancelled": "Đơn hàng đã hủy",
      "deliveryInformation": "Thông tin nhận hàng",
      "rePayment": "Thanh toán trực tuyến",
      "wantCancel": "Bạn có muốn hủy đơn hàng này?",
      "cancelOrder": "Hủy đơn hàng",
      "orderCanceled": "Hủy đơn hàng thành công",
      "unsuccessCancel": "Hủy đơn hàng không thành công"
    },
    "credit": {
      "rechargePoints": "Nạp điểm",
      "accumulatePoints": "Tích điểm",
      "focus": "Tiêu điểm",
      "regulations": "Quy định",
      "buyToAccumulate": "Mua hàng tích điểm",
      "at": "Vào lúc",
      "usePoints": "Sử dụng điểm",
      "loadPoints": "Nạp điểm",
      "by": "bởi"
    }
  },
  "Voucher": {
    "useNow": "Dùng ngay",
    "receivedDiscount": "Mã giảm giá",
    "from": "Từ",
    "discount": "Giảm",
    "copiedCode": "Đã sao chép mã",
    "discountCode": "Mã giảm giá",
    "inputVoucher": "Nhập mã giảm giá",
    "apply": "Áp dụng"
  }
}
